840  atomicd0
free
C            27.07078552         23.14693832        178.70628357
Si           25.37657928         25.99013901        178.50811768
C            22.26474762         27.48463821        178.66477966
Si           18.98206139         27.93453217        178.47958374
C            15.86331463         26.45468140        178.66220093
Si           13.45956612         24.17059898        178.48722839
C            12.68098640         20.81029320        178.67869568
Si           12.96649837         17.50764465        178.51800537
C            15.11120892         14.80611420        178.71185303
Si           17.87525368         12.97899532        178.54449463
C            21.32666206         12.98044682        178.72215271
Si           24.48230362         13.99263000        178.54742432
C            26.64674187         16.68345070        178.72256470
Si           27.82596970         19.77797508        178.53952026
C            26.88507462         28.56706047        176.78317261
Si           23.76515388         29.72789764        176.45639038
C            17.91383362         30.71654701        176.74769592
Si           15.04902267         29.01412773        176.44062805
C            10.61140823         25.06478691        176.76045227
Si           10.16140079         21.76110268        176.46360779
C            10.49066067         15.83130550        176.80058289
Si           12.79303741         13.42059803        176.50688171
C            17.63863564          9.99579716        176.83222961
Si           20.95654488         10.29816341        176.52468872
C            26.66196060         11.94187355        176.83401489
Si           28.50414848         14.71656895        176.52307129
C            30.78663254         20.19622803        176.82136536
Si           29.76493645         23.36611366        176.50381470
C            30.46125984         25.31776237        173.87014771
Si           28.38312721         27.95661545        173.86982727
C            22.66785431         31.47649193        173.81663513
Si           19.31112099         31.49492836        173.82560730
C            12.98878574         29.24014664        173.80630493
Si           10.87462234         26.62972832        173.83154297
C             8.68934345         20.27969360        173.84091187
Si            9.41729450         17.00121307        173.87223816
C            13.02600765         11.34293556        173.88671875
Si           16.04601479          9.87498665        173.90766907
C            22.71679497          9.18508148        173.89990234
Si           25.75134659         10.62321568        173.91255188
C            30.47772026         15.38628292        173.89788818
Si           31.24978638         18.65477943        173.90373230
C            27.37622643         29.37956047        170.97575378
Si           24.35387993         30.90529060        170.95135498
C            17.55994225         31.58526230        170.93922424
Si           14.47753048         30.18417931        170.93022156
C             9.70293427         25.30649757        170.95217896
Si            8.87249279         22.02305031        170.95832825
C             9.71062756         15.25660896        170.99441528
Si           11.76404190         12.56394958        171.00453186
C            17.58255196          9.01068211        171.02490234
Si           20.96690750          8.95322323        171.02415466
C            27.38110542         11.28200817        171.02618408
Si           29.55823517         13.87491322        171.02308655
C            31.75484276         20.33388710        171.01504517
Si           31.07797432         23.65092850        171.00117493
C            30.50525665         25.28450012        168.10330200
Si           28.49484444         28.00895500        168.09526062
C            22.70411873         31.44462967        168.05603027
Si           19.32164574         31.58633041        168.05383301
C            13.01195908         29.22923088        168.04231262
Si           10.77919197         26.68080521        168.05720520
C             8.68864346         20.27850914        168.07371521
Si            9.30569172         16.94808197        168.09600830
C            13.00588131         11.32832623        168.11885071
Si           15.99754047          9.74357510        168.12989807
C            22.69557953          9.16452885        168.13310242
Si           25.80401039         10.50821304        168.13699341
C            30.48935699         15.34474659        168.12971497
Si           31.38440704         18.61174011        168.12834167
C            27.26362228         29.16268539        165.17387390
Si           24.28395653         30.74110603        165.15602112
C            17.64233780         31.34272766        165.13793945
Si           14.54567909         30.00444603        165.13394165
C             9.91562366         25.20607567        165.14889526
Si            9.03286839         21.94928932        165.15837097
C             9.89972496         15.34150600        165.18968201
Si           11.89885616         12.62485981        165.20106506
C            17.61370850          9.21057224        165.21595764
Si           20.98471260          9.09558201        165.21945190
C            27.21953773         11.44473839        165.22026062
Si           29.44563675         13.97807980        165.21958923
C            31.55095673         20.29728508        165.20867920
Si           30.94361687         23.61573792        165.19799805
C            30.42672729         25.20832634        162.27134705
Si           28.41408730         27.90645409        162.26208496
C            22.70739555         31.30538940        162.23210144
Si           19.34338188         31.42078018        162.22549438
C            13.11141968         29.11674881        162.21664429
Si           10.90838718         26.56933212        162.22549438
C             8.82263279         20.26484108        162.24604797
Si            9.43723583         16.95495987        162.26322937
C            13.07032204         11.40836716        162.28431702
Si           16.05169296          9.84585667        162.29339600
C            22.66263390          9.25436401        162.29933167
Si           25.74186707         10.61534309        162.30242920
C            30.37198639         15.37765503        162.29577637
Si           31.26447678         18.62333107        162.29292297
C            27.27906036         29.13282394        159.33531189
Si           24.29286957         30.68246460        159.32337952
C            17.67758560         31.27191925        159.30116272
Si           14.59440422         29.92962646        159.29985046
C             9.95866394         25.17027855        159.30953979
Si            9.08690643         21.92028809        159.32165527
C             9.91683292         15.33092499        159.34782410
Si           11.92680168         12.63253689        159.35803223
C            17.61855888          9.21735764        159.37570190
Si           20.98292351          9.12059307        159.37780762
C            27.20254517         11.44721794        159.38136292
Si           29.40675163         13.98876286        159.37855530
C            31.54218102         20.27594185        159.36825562
Si           30.92461014         23.58460999        159.35844421
C            30.45701218         25.19482613        156.43417358
Si           28.44532394         27.89381409        156.42355347
C            22.73544121         31.29110527        156.39929199
Si           19.37209702         31.39153481        156.39077759
C            13.13089943         29.09346390        156.38397217
Si           10.92618084         26.54830933        156.38868713
C             8.82056999         20.24387169        156.40968323
Si            9.43676567         16.93618011        156.42263794
C            13.06382275         11.37713718        156.44384766
Si           16.05117226          9.82440376        156.45152283
C            22.66656494          9.23199558        156.45852661
Si           25.74335289         10.59796715        156.46087646
C            30.37764168         15.35891724        156.45616150
Si           31.27453613         18.60285378        156.45150757
C            27.31487656         29.13118172        153.49850464
Si           24.32370186         30.67541504        153.48902893
C            17.69967842         31.25443840        153.47007751
Si           14.61070442         29.91383934        153.46804810
C             9.96621990         25.15262794        153.47540283
Si            9.08755016         21.90316200        153.48645020
C             9.91755676         15.31073952        153.50732422
Si           11.92060661         12.60524082        153.51878357
C            17.61911011          9.19566917        153.53283691
Si           20.98480225          9.09892654        153.53758240
C            27.21003151         11.42664433        153.53939819
Si           29.41824532         13.96597767        153.53869629
C            31.55943680         20.25676346        153.52708435
Si           30.94791603         23.56745529        153.52017212
C            30.47483444         25.17641258        150.59501648
Si           28.47088814         27.88184929        150.58685303
C            22.75975037         31.27912712        150.56459045
Si           19.39553070         31.37600517        150.55915833
C            13.15161610         29.07119751        150.54956055
Si           10.94319153         26.52946281        150.55691528
C             8.82317162         20.22942543        150.57235718
Si            9.43695354         16.92020416        150.58302307
C            13.05898380         11.35173416        150.60340881
Si           16.05003166          9.80472469        150.60990906
C            22.66924095          9.21732903        150.61859131
Si           25.74847031         10.57971668        150.61947632
C            30.39315987         15.33654499        150.61714172
Si           31.28922653         18.58156586        150.61189270
C            27.33632660         29.11903191        147.66337585
Si           24.34510612         30.66398811        147.65396118
C            17.71569633         31.23975754        147.63806152
Si           14.63256836         29.89314461        147.63624573
C             9.98633671         25.13561058        147.64163208
Si            9.09720802         21.88966179        147.64913940
C             9.91950893         15.29558849        147.66995239
Si           11.92113304         12.58807278        147.67800903
C            17.62273598          9.18562698        147.69174194
Si           20.98861313          9.08852673        147.69534302
C            27.21617126         11.41152287        147.69908142
Si           29.42821503         13.94850731        147.69758606
C            31.57028389         20.23792267        147.68800354
Si           30.95948601         23.54899597        147.68014526
C            30.48199081         25.15962029        144.75506592
Si           28.48357391         27.86951828        144.74816895
C            22.77778435         31.26737785        144.73146057
Si           19.41169167         31.36380768        144.72508240
C            13.17546749         29.05038452        144.71875000
Si           10.96370983         26.51233482        144.72238159
C             8.82995129         20.21750832        144.73501587
Si            9.44210434         16.90744972        144.74488831
C            13.06062794         11.33662224        144.75976562
Si           16.05289841          9.79440212        144.76791382
C            22.67250824          9.20980358        144.77474976
Si           25.75365067         10.56772041        144.77803040
C            30.40187836         15.32027435        144.77391052
Si           31.29683685         18.56536865        144.77113342
C            27.35007858         29.11085892        141.82431030
Si           24.35964203         30.65574837        141.81742859
C            17.73540878         31.23115540        141.80393982
Si           14.65127850         29.88054276        141.80339050
C            10.00356770         25.12334251        141.80511475
Si            9.10710907         21.87909508        141.81379700
C             9.92319202         15.28662682        141.82827759
Si           11.92344379         12.57754517        141.83702087
C            17.62626076          9.17928696        141.84851074
Si           20.99186707          9.08206367        141.85253906
C            27.22244453         11.39654446        141.85734558
Si           29.43696022         13.93269253        141.85461426
C            31.57256126         20.22300339        141.84706116
Si           30.96453667         23.53421402        141.83920288
C            30.48631477         25.14683342        138.91642761
Si           28.49303818         27.86001587        138.90802002
C            22.79072380         31.26254082        138.89671326
Si           19.42518997         31.35837936        138.88970947
C            13.19014931         29.03979111        138.88526917
Si           10.98051929         26.50123978        138.88775635
C             8.83484936         20.21047020        138.89860535
Si            9.44566536         16.89995003        138.90536499
C            13.06292725         11.32772923        138.91941833
Si           16.05681419          9.78743458        138.92463684
C            22.67665100          9.20382214        138.93266296
Si           25.76054955         10.55800533        138.93327332
C            30.41210175         15.30657864        138.93246460
Si           31.30034065         18.55403709        138.92646790
C            27.35743713         29.10504150        135.98579407
Si           24.36716461         30.65146637        135.97892761
C            17.74466515         31.22663498        135.97094727
Si           14.66150475         29.87362099        135.96853638
C            10.01806355         25.11481094        135.97145081
Si            9.11421490         21.87203789        135.97689819
C             9.92585754         15.28002357        135.98789978
Si           11.92654514         12.57103920        135.99568176
C            17.63030243          9.17507744        136.00440979
Si           20.99600601          9.07718086        136.00942993
C            27.23279953         11.38558674        136.01223755
Si           29.45574570         13.91494083        136.01171875
C            31.57819176         20.21531105        136.00337219
Si           30.95286179         23.52196312        135.99769592
C            30.48978996         25.13905144        133.07455444
Si           28.49839211         27.85334778        133.06867981
C            22.79699898         31.25888634        133.05787659
Si           19.43121147         31.35542488        133.05462646
C            13.19791126         29.03485680        133.04972839
Si           10.98729992         26.49650955        133.05300903
C             8.83737469         20.20683861        133.05851746
Si            9.44800568         16.89615822        133.06652832
C            13.06624317         11.32445335        133.07617188
Si           16.06005859          9.78459930        133.08227539
C            22.68028450          9.19961929        133.08905029
Si           25.76583290         10.54954910        133.09135437
C            30.41943932         15.29727364        133.08895874
Si           31.30624008         18.54506111        133.08561707
C            27.36206245         29.09801292        130.14739990
Si           24.37285805         30.64683342        130.14108276
C            17.74952888         31.22542763        130.13575745
Si           14.66720390         29.87077904        130.13319397
C            10.02148724         25.11288261        130.13554382
Si            9.11805820         21.87047195        130.13931274
C             9.92824364         15.27792740        130.14892578
Si           11.92902184         12.56883621        130.15377808
C            17.63444138          9.17318153        130.16351318
Si           21.00037766          9.07456875        130.16612244
C            27.23654747         11.37727451        130.16969299
Si           29.45030594         13.91414738        130.16873169
C            31.58205605         20.20738411        130.16261292
Si           30.97257233         23.51911354        130.15678406
C            30.49380112         25.13497162        127.23476410
Si           28.50003242         27.84869003        127.22856140
C            22.79990578         31.25461769        127.22154236
Si           19.43414307         31.35325241        127.21737671
C            13.20240116         29.03157997        127.21557617
Si           10.99129200         26.49400711        127.21689606
C             8.83926010         20.20576668        127.22135925
Si            9.45038128         16.89480591        127.22775269
C            13.06897163         11.32271671        127.23523712
Si           16.06407928          9.78338432        127.24123383
C            22.68411446          9.19815350        127.24646759
Si           25.77012444         10.54538441        127.24791718
C            30.41506386         15.29805183        127.24711609
Si           31.31322479         18.54219246        127.24256897
C            27.36283302         29.09477806        124.30796051
Si           24.37418175         30.64334297        124.30429840
C            17.75141144         31.22435760        124.29837799
Si           14.66889858         29.87091827        124.29865265
C            10.02405071         25.11192894        124.29794312
Si            9.12068939         21.87008476        124.30341339
C             9.92924786         15.27750492        124.30884552
Si           11.93015862         12.56886482        124.31520844
C            17.63789368          9.17329502        124.32158661
Si           21.00271225          9.07451248        124.32608032
C            27.24162483         11.37458324        124.32805634
Si           29.45361900         13.91144657        124.32698822
C            31.58770752         20.20621490        124.32147217
Si           30.97559357         23.51582146        124.31718445
C            30.49531364         25.13387108        121.39875031
Si           28.50205803         27.84625816        121.39207458
C            22.80111122         31.25443649        121.38661194
Si           19.43643951         31.35298347        121.38269806
C            13.20295620         29.03377151        121.38163757
Si           10.99438572         26.49558258        121.38219452
C             8.84262085         20.20538521        121.38645935
Si            9.45343590         16.89628792        121.39051056
C            13.06576633         11.31683350        121.39845276
Si           16.06356812          9.78452396        121.40200806
C            22.68757629          9.19818687        121.40864563
Si           25.77295494         10.54361820        121.40864563
C            30.42844772         15.29344273        121.40937805
Si           31.31690598         18.53946686        121.40396118
C            27.36415100         29.09568214        118.47461700
Si           24.37477493         30.64429283        118.46919250
C            17.75182343         31.22581100        118.46627045
Si           14.66953564         29.87155914        118.46430969
C            10.02778530         25.11139107        118.46610260
Si            9.12274075         21.87004471        118.46856689
C             9.93159771         15.27716827        118.47389221
Si           11.93256187         12.56873417        118.47908020
C            17.64062500          9.17343807        118.48495483
Si           21.00576019          9.07474995        118.48827362
C            27.24508095         11.37498093        118.49069977
Si           29.45944405         13.91091824        118.49005890
C            31.58657074         20.20673370        118.48570251
Si           30.97555733         23.51654434        118.48051453
C            30.49760437         25.13527870        115.56121826
Si           28.50360489         27.84841537        115.55729675
C            22.80208206         31.25690651        115.55036926
Si           19.43614578         31.35435104        115.54880524
C            13.20224094         29.03592682        115.54643250
Si           10.99447727         26.49580383        115.54869843
C             8.84385681         20.20632744        115.55054474
Si            9.45419216         16.89524651        115.55548096
C            13.07188225         11.32286739        115.56057739
Si           16.06699371          9.78350925        115.56588745
C            22.68877029          9.19675827        115.56967163
Si           25.77420807         10.54285812        115.57322693
C            30.43306160         15.29105663        115.57085419
Si           31.31821251         18.53898048        115.56865692
C            27.36515045         29.09762192        112.64051056
Si           24.37659836         30.64492798        112.63553619
C            17.75173759         31.22616959        112.63257599
Si           14.66995144         29.87360001        112.63091278
C            10.02551460         25.11260223        112.63259125
Si            9.12359238         21.87139130        112.63450623
C             9.93221474         15.27608395        112.64006805
Si           11.93270683         12.56817245        112.64389038
C            17.64100647          9.17107201        112.65071106
Si           21.00520325          9.07333088        112.65273285
C            27.23845863         11.37897396        112.65638733
Si           29.45854950         13.90947247        112.65445709
C            31.58880424         20.20700264        112.65198517
Si           30.97710037         23.51576042        112.64595032
C            30.49697876         25.13680077        109.72870636
Si           28.50374031         27.84804153        109.72263336
C            22.80082130         31.25583839        109.71887970
Si           19.43671227         31.35405159        109.71482086
C            13.20204639         29.03473473        109.71503448
Si           10.99483585         26.49637794        109.71430206
C             8.84190083         20.20487022        109.71937561
Si            9.45327473         16.89537048        109.72152710
C            13.07260323         11.31899929        109.72802734
Si           16.06657410          9.78276062        109.73135376
C            22.69108772          9.19661331        109.73638916
Si           25.77449799         10.54295158        109.73690033
C            30.43279076         15.29357433        109.73732758
Si           31.31815529         18.53947830        109.73331451
C            27.36443901         29.09682655        106.80652618
Si           24.37539864         30.64501381        106.80339050
C            17.75195122         31.22696495        106.79901886
Si           14.66970730         29.87274361        106.79908752
C            10.02599716         25.11260986        106.79956055
Si            9.12228870         21.87060165        106.80311584
C             9.93115902         15.27575779        106.80715942
Si           11.93297768         12.56803894        106.81227875
C            17.64070892          9.17068958        106.81704712
Si           21.00581360          9.07348061        106.82086945
C            27.24734688         11.37382698        106.82260132
Si           29.46049118         13.91040707        106.82168579
C            31.58917236         20.20713425        106.81722260
Si           30.97683907         23.51687813        106.81328583
C            30.49782753         25.13670540        103.89660645
Si           28.50329971         27.84860992        103.89107513
C            22.80194092         31.25819206        103.88621521
Si           19.43642807         31.35456085        103.88308716
C            13.20176601         29.03654671        103.88325500
Si           10.99443722         26.49627686        103.88314056
C             8.84307575         20.20562935        103.88732147
Si            9.45375156         16.89494324        103.88984680
C            13.07203102         11.32171059        103.89658356
Si           16.06668663          9.78316879        103.89974213
C            22.68955231          9.19609547        103.90522766
Si           25.77539062         10.54270267        103.90530396
C            30.43367958         15.29169083        103.90529633
Si           31.31824493         18.53887749        103.90098572
C            27.36333466         29.10020638        100.97628021
Si           24.37426376         30.64477730        100.97261810
C            17.75103760         31.22607803        100.96786499
Si           14.66856194         29.87304878        100.96671295
C            10.02653027         25.11115456        100.96835327
Si            9.12355995         21.87037659        100.97090149
C             9.93237782         15.27543354        100.97505951
Si           11.93275833         12.56819153        100.97991943
C            17.64129448          9.17161369        100.98482513
Si           21.00481796          9.07349014        100.98904419
C            27.24761772         11.37381840        100.99031830
Si           29.45956993         13.90907669        100.98995209
C            31.58806419         20.20810318        100.98483276
Si           30.97702789         23.51620865        100.98231506
C            30.49697876         25.13680077         98.06909180
Si           28.50374031         27.84804153         98.06301880
C            22.80082130         31.25583839         98.05927277
Si           19.43671227         31.35405159         98.05521393
C            13.20204639         29.03473473         98.05542755
Si           10.99483585         26.49637794         98.05469513
C             8.84190083         20.20487022         98.05976105
Si            9.45327473         16.89537048         98.06192017
C            13.07260323         11.31899929         98.06842041
Si           16.06657410          9.78276062         98.07174683
C            22.69108772          9.19661331         98.07677460
Si           25.77449799         10.54295158         98.07729340
C            30.43279076         15.29357433         98.07772064
Si           31.31815529         18.53947830         98.07370758
C            27.36443901         29.09682655         95.14691925
Si           24.37539864         30.64501381         95.14378357
C            17.75195122         31.22696495         95.13941193
Si           14.66970730         29.87274361         95.13948059
C            10.02599716         25.11260986         95.13995361
Si            9.12228870         21.87060165         95.14350891
C             9.93115902         15.27575779         95.14754486
Si           11.93297768         12.56803894         95.15266418
C            17.64070892          9.17068958         95.15744019
Si           21.00581360          9.07348061         95.16126251
C            27.24734688         11.37382698         95.16299438
Si           29.46049118         13.91040707         95.16207123
C            31.58917236         20.20713425         95.15761566
Si           30.97683907         23.51687813         95.15367889
C            30.49782753         25.13670540         92.23699951
Si           28.50329971         27.84860992         92.23146820
C            22.80194092         31.25819206         92.22660065
Si           19.43642807         31.35456085         92.22348022
C            13.20176601         29.03654671         92.22364044
Si           10.99443722         26.49627686         92.22353363
C             8.84307575         20.20562935         92.22770691
Si            9.45375156         16.89494324         92.23023987
C            13.07203102         11.32171059         92.23697662
Si           16.06668663          9.78316879         92.24013519
C            22.68955231          9.19609547         92.24561310
Si           25.77539062         10.54270267         92.24569702
C            30.43367958         15.29169083         92.24568176
Si           31.31824493         18.53887749         92.24137878
C            27.36333466         29.10020638         89.31667328
Si           24.37426376         30.64477730         89.31300354
C            17.75103760         31.22607803         89.30825043
Si           14.66856194         29.87304878         89.30710602
C            10.02653027         25.11115456         89.30874634
Si            9.12355995         21.87037659         89.31128693
C             9.93237782         15.27543354         89.31544495
Si           11.93275833         12.56819153         89.32031250
C            17.64129448          9.17161369         89.32521820
Si           21.00481796          9.07349014         89.32943726
C            27.24761772         11.37381840         89.33071136
Si           29.45956993         13.90907669         89.33034515
C            31.58806419         20.20810318         89.32521820
Si           30.97702789         23.51620865         89.32270813
C            30.49697876         25.13680077         86.40948486
Si           28.50374031         27.84804153         86.40341187
C            22.80082130         31.25583839         86.39965820
Si           19.43671227         31.35405159         86.39560699
C            13.20204639         29.03473473         86.39582062
Si           10.99483585         26.49637794         86.39508057
C             8.84190083         20.20487022         86.40015411
Si            9.45327473         16.89537048         86.40231323
C            13.07260323         11.31899929         86.40880585
Si           16.06657410          9.78276062         86.41213226
C            22.69108772          9.19661331         86.41716766
Si           25.77449799         10.54295158         86.41768646
C            30.43279076         15.29357433         86.41810608
Si           31.31815529         18.53947830         86.41410065
C            27.36443901         29.09682655         83.48731232
Si           24.37539864         30.64501381         83.48417664
C            17.75195122         31.22696495         83.47979736
Si           14.66970730         29.87274361         83.47987366
C            10.02599716         25.11260986         83.48033905
Si            9.12228870         21.87060165         83.48390198
C             9.93115902         15.27575779         83.48793793
Si           11.93297768         12.56803894         83.49305725
C            17.64070892          9.17068958         83.49783325
Si           21.00581360          9.07348061         83.50164795
C            27.24734688         11.37382698         83.50337982
Si           29.46049118         13.91040707         83.50246429
C            31.58917236         20.20713425         83.49800110
Si           30.97683907         23.51687813         83.49406433
C            30.49782753         25.13670540         80.57738495
Si           28.50329971         27.84860992         80.57186127
C            22.80194092         31.25819206         80.56699371
Si           19.43642807         31.35456085         80.56386566
C            13.20176601         29.03654671         80.56403351
Si           10.99443722         26.49627686         80.56391907
C             8.84307575         20.20562935         80.56809998
Si            9.45375156         16.89494324         80.57062531
C            13.07203102         11.32171059         80.57736206
Si           16.06668663          9.78316879         80.58052826
C            22.68955231          9.19609547         80.58600616
Si           25.77539062         10.54270267         80.58609009
C            30.43367958         15.29169083         80.58607483
Si           31.31824493         18.53887749         80.58176422
C            27.36333466         29.10020638         77.65706635
Si           24.37426376         30.64477730         77.65339661
C            17.75103760         31.22607803         77.64864349
Si           14.66856194         29.87304878         77.64749146
C            10.02653027         25.11115456         77.64913177
Si            9.12355995         21.87037659         77.65167999
C             9.93237782         15.27543354         77.65583801
Si           11.93275833         12.56819153         77.66069794
C            17.64129448          9.17161369         77.66561127
Si           21.00481796          9.07349014         77.66982269
C            27.24761772         11.37381840         77.67110443
Si           29.45956993         13.90907669         77.67073059
C            31.58806419         20.20810318         77.66561127
Si           30.97702789         23.51620865         77.66309357
C            30.49345016         25.13667679         74.74460602
Si           28.50265312         27.84926987         74.74101257
C            22.80031586         31.25629044         74.73478699
Si           19.43640137         31.35407066         74.73233795
C            13.19307709         29.03934669         74.73026276
Si           10.99349689         26.49499512         74.73175049
C             8.84194279         20.20494080         74.73413849
Si            9.45308018         16.89516068         74.73812103
C            13.07197380         11.31981754         74.74346924
Si           16.06619072          9.78282070         74.74798584
C            22.69076920          9.19640160         74.75267029
Si           25.77544022         10.54285431         74.75432587
C            30.43252754         15.29233932         74.75290680
Si           31.31744385         18.53776360         74.75019836
C            27.36434174         29.09672356         71.82447815
Si           24.37415886         30.64456558         71.81796265
C            17.75235367         31.22600174         71.81579590
Si           14.66862297         29.87221336         71.81398773
C            10.02619457         25.11280060         71.81632996
Si            9.12227058         21.87018394         71.81694794
C             9.93181324         15.27562523         71.82359314
Si           11.93346310         12.56741905         71.82618713
C            17.64107513          9.17143250         71.83351135
Si           21.00676346          9.07380772         71.83547974
C            27.24676895         11.37456512         71.83934021
Si           29.46058273         13.91045952         71.83607483
C            31.58448601         20.20623779         71.83398438
Si           30.96723747         23.51406288         71.82961273
C            30.48927307         25.13281441         68.90806580
Si           28.49932480         27.84932899         68.90387726
C            22.80090523         31.25527954         68.89952087
Si           19.43526268         31.35400581         68.89642334
C            13.20288467         29.03442574         68.89545441
Si           10.99410629         26.49426842         68.89661407
C             8.84385204         20.20445633         68.90079498
Si            9.45522785         16.89359856         68.90346527
C            13.07400990         11.32155228         68.90919495
Si           16.06909561          9.78329468         68.91384125
C            22.69105911          9.19790840         68.91864014
Si           25.77683640         10.54483318         68.92019653
C            30.43287468         15.29191494         68.91968536
Si           31.31630898         18.53858566         68.91568756
C            27.36315155         29.09854698         65.98457336
Si           24.37381744         30.64537239         65.98123169
C            17.75261116         31.22466469         65.97737885
Si           14.67248631         29.86688995         65.97769928
C            10.02736855         25.11045074         65.97857666
Si            9.12437630         21.86817169         65.98208618
C             9.93553448         15.27624798         65.98561096
Si           11.93655300         12.56878567         65.99075317
C            17.64393234          9.17321301         65.99679565
Si           21.00864601          9.07497120         66.00090790
C            27.24880028         11.37594700         66.00411224
Si           29.46238518         13.91054440         66.00325775
C            31.58875275         20.20687103         65.99878693
Si           30.97461700         23.51578712         65.99096680
C            30.49569702         25.13902664         63.07417297
Si           28.50078011         27.85137177         63.06585693
C            22.80058289         31.25588608         63.06251526
Si           19.43581390         31.35279274         63.05944443
C            13.21024036         29.02449608         63.05929947
Si           10.99753761         26.48917007         63.05958176
C             8.84500408         20.20412254         63.06459045
Si            9.45773792         16.89380646         63.06680679
C            13.07884407         11.32183361         63.07431030
Si           16.07488441          9.78447151         63.07712936
C            22.69671440          9.19853783         63.08643723
Si           25.78187752         10.54537773         63.08646774
C            30.43759346         15.29374027         63.08754730
Si           31.32064629         18.54109955         63.08029938
C            27.36173248         29.09940720         60.14712143
Si           24.37329292         30.64587593         60.14167023
C            17.75259399         31.22319412         60.14010239
Si           14.67202854         29.86453629         60.13872910
C            10.02866173         25.10901642         60.14094543
Si            9.12484837         21.86571121         60.14291382
C             9.94012260         15.27516937         60.14942169
Si           11.94220543         12.56767082         60.15365219
C            17.65871620          9.17648315         60.16179657
Si           21.02006149          9.07440853         60.16605759
C            27.25600433         11.37597561         60.16992188
Si           29.47027016         13.91219711         60.16777802
C            31.58855247         20.21041298         60.16257858
Si           30.97706985         23.52120018         60.15396500
C            30.49525070         25.13926506         57.23421097
Si           28.50041580         27.85171127         57.22869110
C            22.79919243         31.25523376         57.22112656
Si           19.43493652         31.35276985         57.21915817
C            13.20466614         29.03132057         57.21801758
Si           10.99508190         26.49068260         57.22006989
C             8.84676456         20.20204735         57.22286987
Si            9.46174335         16.89129639         57.22818375
C            13.08608532         11.32185173         57.23567581
Si           16.08278084          9.78497314         57.24206543
C            22.70493507          9.19587326         57.24925232
Si           25.79122925         10.54144287         57.25094223
C            30.44569778         15.29332924         57.24898148
Si           31.32444000         18.54273605         57.24377060
C            27.36126709         29.09630013         54.30915070
Si           24.37356186         30.64312553         54.30282211
C            17.75217247         31.22298431         54.29750443
Si           14.66819572         29.86873055         54.29707718
C            10.02951241         25.10817528         54.29990768
Si            9.12737179         21.86407852         54.30235291
C             9.94658184         15.27283669         54.31023788
Si           11.95025253         12.56664658         54.31412506
C            17.66185760          9.17491817         54.32571411
Si           21.02724457          9.07252026         54.32874680
C            27.26919174         11.36963940         54.33556747
Si           29.48072815         13.90876198         54.33026886
C            31.59178734         20.20953560         54.32334518
Si           30.97773743         23.51926041         54.31639481
C            30.49432755         25.13601875         51.39596939
Si           28.49804497         27.84732437         51.38962936
C            22.79851913         31.25065994         51.38134003
Si           19.43449402         31.35038948         51.37635803
C            13.20395565         29.02913666         51.37708282
Si           10.99517345         26.48768044         51.37751389
C             8.84994507         20.19755554         51.38449097
Si            9.46766090         16.88680267         51.38772583
C            13.09921932         11.32089424         51.39878082
Si           16.09509277          9.78426552         51.40300751
C            22.71866417          9.19344807         51.41370010
Si           25.80719566         10.53525639         51.41485214
C            30.45516586         15.28975582         51.41168213
Si           31.32777977         18.54048347         51.40552902
C            27.35830307         29.08834839         48.46546173
Si           24.36935234         30.63794708         48.45953369
C            17.75054932         31.21992874         48.45447922
Si           14.66785049         29.86420059         48.45449066
C            10.03104591         25.10220718         48.45756912
Si            9.12934685         21.85788155         48.46187973
C             9.95636654         15.26776791         48.46941757
Si           11.96591854         12.56464195         48.47623062
C            17.67834091          9.17294693         48.48847580
Si           21.04199791          9.06883812         48.49306107
C            27.28841972         11.35670376         48.49879456
Si           29.49460793         13.90006542         48.49527359
C            31.59271812         20.20323753         48.48184204
Si           30.97431755         23.51173973         48.47865295
C            30.48664474         25.12148666         45.55239487
Si           28.49609184         27.84082794         45.54449081
C            22.79882431         31.24403191         45.53501129
Si           19.43297768         31.34560966         45.53294754
C            13.20567131         29.02126503         45.53357697
Si           10.99616718         26.48097801         45.53556824
C             8.85360146         20.19045830         45.54343414
Si            9.47553349         16.88094521         45.54790497
C            13.13118649         11.33071804         45.56252289
Si           16.11757278          9.78084946         45.56569672
C            22.73606300          9.18537807         45.57956314
Si           25.82615852         10.52213955         45.58005524
C            30.46875954         15.27866936         45.57891464
Si           31.33214760         18.53039551         45.56668091
C            27.35717773         29.08033180         42.61846161
Si           24.36850929         30.63093185         42.61310577
C            17.74962044         31.21453476         42.61243820
Si           14.66803932         29.85629082         42.61123276
C            10.03054523         25.09379196         42.61783600
Si            9.13144970         21.84893608         42.62049103
C             9.96891880         15.25924683         42.63298798
Si           11.98310566         12.55885983         42.64023590
C            17.69739914          9.16915417         42.65272141
Si           21.06021500          9.06155300         42.65833282
C            27.31173897         11.34073734         42.66368484
Si           29.50824738         13.89199162         42.65737915
C            31.59187698         20.19607925         42.64511108
Si           30.97392273         23.50455666         42.63129425
C            30.48816490         25.12083626         39.70745468
Si           28.49349976         27.83110046         39.69820404
C            22.79683113         31.23752403         39.69010162
Si           19.43085480         31.33943939         39.68998718
C            13.20560169         29.00983238         39.69151688
Si           10.99606419         26.46966362         39.69429016
C             8.85695553         20.17878342         39.70313263
Si            9.48410225         16.86962128         39.70987701
C            13.13595772         11.31564140         39.72380066
Si           16.12920570          9.77587318         39.73192596
C            22.75429726          9.17246246         39.74370575
Si           25.84573936         10.50642300         39.74560165
C            30.48013687         15.27359962         39.73772049
Si           31.34753227         18.52460861         39.72732544
C            27.35455894         29.06864929         36.77376938
Si           24.36823654         30.62009048         36.77047729
C            17.74803352         31.20731926         36.76866913
Si           14.66769409         29.84632492         36.76981735
C            10.03148460         25.08172607         36.77581787
Si            9.13489342         21.83623886         36.78055954
C             9.98075485         15.24766159         36.79519272
Si           11.99563885         12.55035210         36.80224228
C            17.71213722          9.15868378         36.82186127
Si           21.07686615          9.04793167         36.82385635
C            27.33131218         11.32600117         36.82875824
Si           29.52246284         13.88075352         36.81925201
C            31.59879494         20.18904495         36.80482101
Si           30.97617531         23.49756622         36.79220581
C            30.49649048         25.10953331         33.86922073
Si           28.49362564         27.81505013         33.85931778
C            22.79483223         31.22703362         33.85000229
Si           19.42988586         31.32917023         33.84847641
C            13.20580196         28.99717903         33.85152435
Si           10.99871826         26.45592690         33.85348129
C             8.86278152         20.16256714         33.86605835
Si            9.49579525         16.85528564         33.87220001
C            13.15525341         11.30648327         33.89142609
Si           16.14908028          9.76644611         33.89986038
C            22.77104378          9.15635395         33.90948868
Si           25.86316299         10.49116135         33.90734863
C            30.48954773         15.25936890         33.89566040
Si           31.34702682         18.51706314         33.88542175
C            27.34707832         29.04390144         30.93553162
Si           24.36281204         30.60055923         30.93064308
C            17.74595833         31.19491768         30.92895317
Si           14.66839981         29.82978630         30.92910576
C            10.03606415         25.06410599         30.93722534
Si            9.14391327         21.81811905         30.94240379
C             9.99843597         15.23367882         30.95905495
Si           12.01704216         12.54028130         30.96887779
C            17.73029137          9.14559364         30.98737717
Si           21.09122849          9.03525352         30.99198341
C            27.34330940         11.30898952         30.98883438
Si           29.53068352         13.86378956         30.98329353
C            31.59928894         20.18041039         30.96531105
Si           30.97871017         23.48436737         30.95285225
C            30.49135971         25.09064674         28.02716064
Si           28.48430252         27.79084206         28.02061462
C            22.79185486         31.20590973         28.00787926
Si           19.42719650         31.30962181         28.00844574
C            13.21030617         28.97654915         28.00987434
Si           11.00580311         26.43415451         28.01461792
C             8.87960815         20.14520073         28.02658081
Si            9.51605225         16.83999825         28.03615952
C            13.17726135         11.30072212         28.05703163
Si           16.16787338          9.75661373         28.06490517
C            22.78279305          9.13885880         28.08081055
Si           25.86932755         10.47802639         28.07575417
C            30.48711967         15.25019550         28.05876923
Si           31.33961487         18.50165558         28.04845810
C            27.33832169         29.01530266         25.09585190
Si           24.35793304         30.58178711         25.08900833
C            17.74584961         31.17507935         25.08861542
Si           14.66634655         29.81215477         25.08740807
C            10.04229069         25.04382133         25.09848213
Si            9.15245056         21.79671860         25.10135841
C            10.01718712         15.21887493         25.12404251
Si           12.03555012         12.52535725         25.13223648
C            17.74218750          9.12644291         25.15393639
Si           21.10661507          9.00134087         25.15520477
C            27.34019661         11.29409885         25.15141487
Si           29.53141212         13.85062504         25.14453888
C            31.59456062         20.15987587         25.12652206
Si           30.97505188         23.47020912         25.11189461
C            30.50902367         25.08340454         22.18650818
Si           28.51046562         27.80135345         22.17726326
C            22.79274368         31.21373367         22.16793633
Si           19.42116737         31.33435631         22.16701508
C            13.19003582         28.97774506         22.17100716
Si           10.96378136         26.44304276         22.17351913
C             8.86583805         20.12236214         22.18646049
Si            9.48465919         16.80602264         22.19820976
C            13.17870331         11.26867104         22.21877670
Si           16.15988350          9.69192123         22.23318100
C            22.79458809          9.07187176         22.23883438
Si           25.89339066         10.41304016         22.23981476
C            30.50638962         15.22044849         22.21949196
Si           31.38720894         18.47913742         22.21118355
C            27.39897919         29.09687805         19.26105309
Si           24.40817642         30.68408585         19.25275230
C            17.70882797         31.26042747         19.25490379
Si           14.60004330         29.91618347         19.25287628
C             9.92061901         25.07372093         19.26517105
Si            9.02756500         21.80578613         19.26622200
C             9.91728973         15.13520241         19.29405975
Si           11.93778992         12.41770840         19.29983711
C            17.72815323          8.98254204         19.32979774
Si           21.11080360          8.83675003         19.32685852
C            27.41204262         11.18962860         19.32883453
Si           29.63053322         13.75010300         19.30977249
C            31.72496986         20.14886284         19.29438210
Si           31.10446167         23.47991180         19.27794266
C            30.69512558         25.17233849         16.38113785
Si           28.64146042         27.86407089         16.37340736
C            22.81960487         31.41399574         16.35929680
Si           19.43471718         31.47336388         16.36216736
C            13.02313805         29.13706589         16.36588860
Si           10.84636402         26.54316139         16.37031746
C             8.65677166         20.08182335         16.38120079
Si            9.33798122         16.76577187         16.39581871
C            13.04917336         11.04618645         16.41745377
Si           16.07354736          9.52382755         16.43765450
C            22.86313820          8.83343315         16.43568420
Si           25.94234848         10.23855305         16.43997574
C            30.71322823         15.12436390         16.41568375
Si           31.54591370         18.40361214         16.41102409
C            27.37415314         29.08428574         13.49302578
Si           24.35479355         30.55350304         13.47455311
C            17.68228722         31.23722649         13.48898029
Si           14.64792919         29.79833603         13.47796822
C             9.92729092         25.02907372         13.49760723
Si            9.15639114         21.75989914         13.49081993
C             9.95220947         15.09920979         13.52671432
Si           12.03558636         12.46468639         13.52427673
C            17.75111580          8.94913673         13.56823540
Si           21.10744095          8.92863083         13.55230045
C            27.42446899         11.18824100         13.56392670
Si           29.53522682         13.80013657         13.53666496
C            31.71845245         20.15078545         13.52703381
Si           30.98649025         23.42652512         13.50190449
C            29.90662956         24.59817886         10.57547951
Si           27.60610008         27.00818825         10.87153339
C            22.75812721         30.43250847         10.55228138
Si           19.44030762         30.12842560         10.86060810
C            13.73788166         28.47700310         10.55882931
Si           11.89871311         25.70005035         10.87069607
C             9.61884689         20.21940613         10.57384396
Si           10.64480877         17.05062675         10.89142418
C            13.52572060         11.85179615         10.60802555
Si           16.64768791         10.69173527         10.92800331
C            22.49878120          9.70548534         10.62723446
Si           25.35913086         11.41402912         10.93280315
C            29.79227257         15.36623478         10.60858440
Si           30.24152756         18.67029953         10.90769100
C            25.28586960         25.62379646          8.66779327
Si           22.52248001         27.44994926          8.83703136
C            19.07158470         27.44723701          8.66228008
Si           15.91678810         26.42882919          8.84183693
C            13.75799751         23.73507881          8.67199039
Si           12.57894230         20.63923454          8.85339451
C            13.33678532         17.27181053          8.68660831
Si           15.03085041         14.42753887          8.87737560
C            18.14074326         12.92962265          8.70945835
Si           21.42351151         12.48702145          8.89518738
C            24.53976631         13.97468853          8.71351910
Si           26.94035530         16.25850487          8.88485432
C            27.71852875         19.62133980          8.69506741
Si           27.43149185         22.92145538          8.85757828
