952 atomic
free
C            27.07078552         23.14693832        202.02550227
Si           25.37657928         25.99013901        201.82733638
C            22.26474762         27.48463821        201.98399836
Si           18.98206139         27.93453217        201.79880244
C            15.86331463         26.45468140        201.98141963
Si           13.45956612         24.17059898        201.80644709
C            12.68098640         20.81029320        201.99791438
Si           12.96649837         17.50764465        201.83722407
C            15.11120892         14.80611420        202.03107173
Si           17.87525368         12.97899532        201.86371333
C            21.32666206         12.98044682        202.04137141
Si           24.48230362         13.99263000        201.86664302
C            26.64674187         16.68345070        202.04178340
Si           27.82596970         19.77797508        201.85873896
C            26.88507462         28.56706047        200.10239131
Si           23.76515388         29.72789764        199.77560908
C            17.91383362         30.71654701        200.06691462
Si           15.04902267         29.01412773        199.75984675
C            10.61140823         25.06478691        200.07967097
Si           10.16140079         21.76110268        199.78282649
C            10.49066067         15.83130550        200.11980159
Si           12.79303741         13.42059803        199.82610041
C            17.63863564          9.99579716        200.15144831
Si           20.95654488         10.29816341        199.84390742
C            26.66196060         11.94187355        200.15323359
Si           28.50414848         14.71656895        199.84228999
C            30.78663254         20.19622803        200.14058406
Si           29.76493645         23.36611366        199.82303340
C            30.46125984         25.31776237        197.18936641
Si           28.38312721         27.95661545        197.18904597
C            22.66785431         31.47649193        197.13585383
Si           19.31112099         31.49492836        197.14482600
C            12.98878574         29.24014664        197.12552363
Si           10.87462234         26.62972832        197.15076167
C             8.68934345         20.27969360        197.16013057
Si            9.41729450         17.00121307        197.19145686
C            13.02600765         11.34293556        197.20593745
Si           16.04601479          9.87498665        197.22688777
C            22.71679497          9.18508148        197.21912104
Si           25.75134659         10.62321568        197.23177058
C            30.47772026         15.38628292        197.21710688
Si           31.24978638         18.65477943        197.22295100
C            27.37622643         29.37956047        194.29497248
Si           24.35387993         30.90529060        194.27057368
C            17.55994225         31.58526230        194.25844294
Si           14.47753048         30.18417931        194.24944026
C             9.70293427         25.30649757        194.27139766
Si            8.87249279         22.02305031        194.27754695
C             9.71062756         15.25660896        194.31363398
Si           11.76404190         12.56394958        194.32375056
C            17.58255196          9.01068211        194.34412104
Si           20.96690750          8.95322323        194.34337336
C            27.38110542         11.28200817        194.34540278
Si           29.55823517         13.87491322        194.34230525
C            31.75484276         20.33388710        194.33426387
Si           31.07797432         23.65092850        194.32039363
C            30.50525665         25.28450012        191.42252070
Si           28.49484444         28.00895500        191.41447932
C            22.70411873         31.44462967        191.37524897
Si           19.32164574         31.58633041        191.37305171
C            13.01195908         29.22923088        191.36153132
Si           10.77919197         26.68080521        191.37642390
C             8.68864346         20.27850914        191.39293391
Si            9.30569172         16.94808197        191.41522700
C            13.00588131         11.32832623        191.43806941
Si           15.99754047          9.74357510        191.44911677
C            22.69557953          9.16452885        191.45232112
Si           25.80401039         10.50821304        191.45621211
C            30.48935699         15.34474659        191.44893367
Si           31.38440704         18.61174011        191.44756037
C            27.26362228         29.16268539        188.49309260
Si           24.28395653         30.74110603        188.47523982
C            17.64233780         31.34272766        188.45715815
Si           14.54567909         30.00444603        188.45316035
C             9.91562366         25.20607567        188.46811396
Si            9.03286839         21.94928932        188.47758967
C             9.89972496         15.34150600        188.50890071
Si           11.89885616         12.62485981        188.52028376
C            17.61370850          9.21057224        188.53517634
Si           20.98471260          9.09558201        188.53867060
C            27.21953773         11.44473839        188.53947932
Si           29.44563675         13.97807980        188.53880793
C            31.55095673         20.29728508        188.52789790
Si           30.94361687         23.61573792        188.51721675
C            30.42672729         25.20832634        185.59056575
Si           28.41408730         27.90645409        185.58130366
C            22.70739555         31.30538940        185.55132014
Si           19.34338188         31.42078018        185.54471308
C            13.11141968         29.11674881        185.53586299
Si           10.90838718         26.56933212        185.54471308
C             8.82263279         20.26484108        185.56526667
Si            9.43723583         16.95495987        185.58244807
C            13.07032204         11.40836716        185.60353572
Si           16.05169296          9.84585667        185.61261470
C            22.66263390          9.25436401        185.61855037
Si           25.74186707         10.61534309        185.62164790
C            30.37198639         15.37765503        185.61499507
Si           31.26447678         18.62333107        185.61214167
C            27.27906036         29.13282394        182.65453059
Si           24.29286957         30.68246460        182.64259822
C            17.67758560         31.27191925        182.62038142
Si           14.59440422         29.92962646        182.61906916
C             9.95866394         25.17027855        182.62875849
Si            9.08690643         21.92028809        182.64087397
C             9.91683292         15.33092499        182.66704280
Si           11.92680168         12.63253689        182.67725093
C            17.61855888          9.21735764        182.69492060
Si           20.98292351          9.12059307        182.69702632
C            27.20254517         11.44721794        182.70058162
Si           29.40675163         13.98876286        182.69777400
C            31.54218102         20.27594185        182.68747432
Si           30.92461014         23.58460999        182.67766291
C            30.45701218         25.19482613        179.75339228
Si           28.44532394         27.89381409        179.74277217
C            22.73544121         31.29110527        179.71851069
Si           19.37209702         31.39153481        179.70999629
C            13.13089943         29.09346390        179.70319087
Si           10.92618084         26.54830933        179.70790583
C             8.82056999         20.24387169        179.72890193
Si            9.43676567         16.93618011        179.74185664
C            13.06382275         11.37713718        179.76306636
Si           16.05117226          9.82440376        179.77074153
C            22.66656494          9.23199558        179.77774531
Si           25.74335289         10.59796715        179.78009516
C            30.37764168         15.35891724        179.77538020
Si           31.27453613         18.60285378        179.77072627
C            27.31487656         29.13118172        176.81772334
Si           24.32370186         30.67541504        176.80824763
C            17.69967842         31.25443840        176.78929621
Si           14.61070442         29.91383934        176.78726680
C             9.96621990         25.15262794        176.79462153
Si            9.08755016         21.90316200        176.80566890
C             9.91755676         15.31073952        176.82654292
Si           11.92060661         12.60524082        176.83800227
C            17.61911011          9.19566917        176.85205561
Si           20.98480225          9.09892654        176.85680110
C            27.21003151         11.42664433        176.85861689
Si           29.41824532         13.96597767        176.85791499
C            31.55943680         20.25676346        176.84630305
Si           30.94791603         23.56745529        176.83939082
C            30.47483444         25.17641258        173.91423518
Si           28.47088814         27.88184929        173.90607173
C            22.75975037         31.27912712        173.88380915
Si           19.39553070         31.37600517        173.87837703
C            13.15161610         29.07119751        173.86877925
Si           10.94319153         26.52946281        173.87613398
C             8.82317162         20.22942543        173.89157588
Si            9.43695354         16.92020416        173.90224177
C            13.05898380         11.35173416        173.92262751
Si           16.05003166          9.80472469        173.92912776
C            22.66924095          9.21732903        173.93781001
Si           25.74847031         10.57971668        173.93869502
C            30.39315987         15.33654499        173.93636042
Si           31.28922653         18.58156586        173.93111140
C            27.33632660         29.11903191        170.98259455
Si           24.34510612         30.66398811        170.97317988
C            17.71569633         31.23975754        170.95728022
Si           14.63256836         29.89314461        170.95546443
C             9.98633671         25.13561058        170.96085078
Si            9.09720802         21.88966179        170.96835810
C             9.91950893         15.29558849        170.98917109
Si           11.92113304         12.58807278        170.99722773
C            17.62273598          9.18562698        171.01096064
Si           20.98861313          9.08852673        171.01456172
C            27.21617126         11.41152287        171.01830012
Si           29.42821503         13.94850731        171.01680476
C            31.57028389         20.23792267        171.00722224
Si           30.95948601         23.54899597        170.99936396
C            30.48199081         25.15962029        168.07428462
Si           28.48357391         27.86951828        168.06738765
C            22.77778435         31.26737785        168.05067927
Si           19.41169167         31.36380768        168.04430110
C            13.17546749         29.05038452        168.03796870
Si           10.96370983         26.51233482        168.04160029
C             8.82995129         20.21750832        168.05423457
Si            9.44210434         16.90744972        168.06410701
C            13.06062794         11.33662224        168.07898432
Si           16.05289841          9.79440212        168.08713252
C            22.67250824          9.20980358        168.09396846
Si           25.75365067         10.56772041        168.09724910
C            30.40187836         15.32027435        168.09312922
Si           31.29683685         18.56536865        168.09035212
C            27.35007858         29.11085892        165.14352900
Si           24.35964203         30.65574837        165.13664729
C            17.73540878         31.23115540        165.12315852
Si           14.65127850         29.88054276        165.12260920
C            10.00356770         25.12334251        165.12433345
Si            9.10710907         21.87909508        165.13301570
C             9.92319202         15.28662682        165.14749629
Si           11.92344379         12.57754517        165.15623957
C            17.62626076          9.17928696        165.16772944
Si           20.99186707          9.08206367        165.17175776
C            27.22244453         11.39654446        165.17656428
Si           29.43696022         13.93269253        165.17383296
C            31.57256126         20.22300339        165.16627986
Si           30.96453667         23.53421402        165.15842158
C            30.48631477         25.14683342        162.23564631
Si           28.49303818         27.86001587        162.22723872
C            22.79072380         31.26254082        162.21593196
Si           19.42518997         31.35837936        162.20892817
C            13.19014931         29.03979111        162.20448787
Si           10.98051929         26.50123978        162.20697505
C             8.83484936         20.21047020        162.21782405
Si            9.44566536         16.89995003        162.22458369
C            13.06292725         11.32772923        162.23863703
Si           16.05681419          9.78743458        162.24385554
C            22.67665100          9.20382214        162.25188166
Si           25.76054955         10.55800533        162.25249202
C            30.41210175         15.30657864        162.25168330
Si           31.30034065         18.55403709        162.24568660
C            27.35743713         29.10504150        159.30501277
Si           24.36716461         30.65146637        159.29814631
C            17.74466515         31.22663498        159.29016597
Si           14.66150475         29.87362099        159.28775508
C            10.01806355         25.11481094        159.29066951
Si            9.11421490         21.87203789        159.29611689
C             9.92585754         15.28002357        159.30711848
Si           11.92654514         12.57103920        159.31490046
C            17.63030243          9.17507744        159.32362849
Si           20.99600601          9.07718086        159.32864863
C            27.23279953         11.38558674        159.33145625
Si           29.45574570         13.91494083        159.33093745
C            31.57819176         20.21531105        159.32259089
Si           30.95286179         23.52196312        159.31691462
C            30.48978996         25.13905144        156.39377314
Si           28.49839211         27.85334778        156.38789851
C            22.79699898         31.25888634        156.37709529
Si           19.43121147         31.35542488        156.37384516
C            13.19791126         29.03485680        156.36894709
Si           10.98729992         26.49650955        156.37222773
C             8.83737469         20.20683861        156.37773616
Si            9.44800568         16.89615822        156.38574702
C            13.06624317         11.32445335        156.39539058
Si           16.06005859          9.78459930        156.40149409
C            22.68028450          9.19961929        156.40826899
Si           25.76583290         10.54954910        156.41057307
C            30.41943932         15.29727364        156.40817744
Si           31.30624008         18.54506111        156.40483577
C            27.36206245         29.09801292        153.46661860
Si           24.37285805         30.64683342        153.46030146
C            17.74952888         31.22542763        153.45497615
Si           14.66720390         29.87077904        153.45241267
C            10.02148724         25.11288261        153.45476252
Si            9.11805820         21.87047195        153.45853144
C             9.92824364         15.27792740        153.46814448
Si           11.92902184         12.56883621        153.47299678
C            17.63444138          9.17318153        153.48273188
Si           21.00037766          9.07456875        153.48534114
C            27.23654747         11.37727451        153.48891169
Si           29.45030594         13.91414738        153.48795039
C            31.58205605         20.20738411        153.48183162
Si           30.97257233         23.51911354        153.47600276
C            30.49380112         25.13497162        150.55398280
Si           28.50003242         27.84869003        150.54778010
C            22.79990578         31.25461769        150.54076106
Si           19.43414307         31.35325241        150.53659541
C            13.20240116         29.03157997        150.53479487
Si           10.99129200         26.49400711        150.53611476
C             8.83926010         20.20576668        150.54057795
Si            9.45038128         16.89480591        150.54697139
C            13.06897163         11.32271671        150.55445582
Si           16.06407928          9.78338432        150.56045253
C            22.68411446          9.19815350        150.56568629
Si           25.77012444         10.54538441        150.56713588
C            30.41506386         15.29805183        150.56633479
Si           31.31322479         18.54219246        150.56178767
C            27.36283302         29.09477806        147.62717921
Si           24.37418175         30.64334297        147.62351710
C            17.75141144         31.22435760        147.61759669
Si           14.66889858         29.87091827        147.61787135
C            10.02405071         25.11192894        147.61716182
Si            9.12068939         21.87008476        147.62263209
C             9.92924786         15.27750492        147.62806422
Si           11.93015862         12.56886482        147.63442714
C            17.63789368          9.17329502        147.64080531
Si           21.00271225          9.07451248        147.64529902
C            27.24162483         11.37458324        147.64727504
Si           29.45361900         13.91144657        147.64620692
C            31.58770752         20.20621490        147.64069087
Si           30.97559357         23.51582146        147.63640315
C            30.49531364         25.13387108        144.71796901
Si           28.50205803         27.84625816        144.71129328
C            22.80111122         31.25443649        144.70583064
Si           19.43643951         31.35298347        144.70191676
C            13.20295620         29.03377151        144.70085627
Si           10.99438572         26.49558258        144.70141322
C             8.84262085         20.20538521        144.70567805
Si            9.45343590         16.89628792        144.70972926
C            13.06576633         11.31683350        144.71767146
Si           16.06356812          9.78452396        144.72122676
C            22.68757629          9.19818687        144.72786433
Si           25.77295494         10.54361820        144.72786433
C            30.42844772         15.29344273        144.72859675
Si           31.31690598         18.53946686        144.72317988
C            27.36415100         29.09568214        141.79383570
Si           24.37477493         30.64429283        141.78841120
C            17.75182343         31.22581100        141.78548915
Si           14.66953564         29.87155914        141.78352839
C            10.02778530         25.11139107        141.78532130
Si            9.12274075         21.87004471        141.78778559
C             9.93159771         15.27716827        141.79311091
Si           11.93256187         12.56873417        141.79829890
C            17.64062500          9.17343807        141.80417353
Si           21.00576019          9.07474995        141.80749232
C            27.24508095         11.37498093        141.80991847
Si           29.45944405         13.91091824        141.80927760
C            31.58657074         20.20673370        141.80492121
Si           30.97555733         23.51654434        141.79973323
C            30.49760437         25.13527870        138.88043696
Si           28.50360489         27.84841537        138.87651545
C            22.80208206         31.25690651        138.86958796
Si           19.43614578         31.35435104        138.86802394
C            13.20224094         29.03592682        138.86565120
Si           10.99447727         26.49580383        138.86791713
C             8.84385681         20.20632744        138.86976344
Si            9.45419216         16.89524651        138.87469966
C            13.07188225         11.32286739        138.87979609
Si           16.06699371          9.78350925        138.88510615
C            22.68877029          9.19675827        138.88889033
Si           25.77420807         10.54285812        138.89244563
C            30.43306160         15.29105663        138.89007289
Si           31.31821251         18.53898048        138.88787562
C            27.36515045         29.09762192        135.95972926
Si           24.37659836         30.64492798        135.95475489
C            17.75173759         31.22616959        135.95179469
Si           14.66995144         29.87360001        135.95013148
C            10.02551460         25.11260223        135.95180995
Si            9.12359238         21.87139130        135.95372493
C             9.93221474         15.27608395        135.95928675
Si           11.93270683         12.56817245        135.96310908
C            17.64100647          9.17107201        135.96992976
Si           21.00520325          9.07333088        135.97195155
C            27.23845863         11.37897396        135.97560603
Si           29.45854950         13.90947247        135.97367579
C            31.58880424         20.20700264        135.97120387
Si           30.97710037         23.51576042        135.96516902
C            30.49697876         25.13680077        133.04792506
Si           28.50374031         27.84804153        133.04185206
C            22.80082130         31.25583839        133.03809840
Si           19.43671227         31.35405159        133.03403956
C            13.20204639         29.03473473        133.03425318
Si           10.99483585         26.49637794        133.03352076
C             8.84190083         20.20487022        133.03859431
Si            9.45327473         16.89537048        133.04074580
C            13.07260323         11.31899929        133.04724604
Si           16.06657410          9.78276062        133.05057246
C            22.69108772          9.19661331        133.05560786
Si           25.77449799         10.54295158        133.05611903
C            30.43279076         15.29357433        133.05654628
Si           31.31815529         18.53947830        133.05253321
C            27.36443901         29.09682655        130.12574488
Si           24.37539864         30.64501381        130.12260920
C            17.75195122         31.22696495        130.11823756
Si           14.66970730         29.87274361        130.11830622
C            10.02599716         25.11260986        130.11877925
Si            9.12228870         21.87060165        130.12233454
C             9.93115902         15.27575779        130.12637812
Si           11.93297768         12.56803894        130.13149745
C            17.64070892          9.17068958        130.13626582
Si           21.00581360          9.07348061        130.14008815
C            27.24734688         11.37382698        130.14182002
Si           29.46049118         13.91040707        130.14090449
C            31.58917236         20.20713425        130.13644130
Si           30.97683907         23.51687813        130.13250453
C            30.49782753         25.13670540        127.21582515
Si           28.50329971         27.84860992        127.21029383
C            22.80194092         31.25819206        127.20543391
Si           19.43642807         31.35456085        127.20230586
C            13.20176601         29.03654671        127.20247370
Si           10.99443722         26.49627686        127.20235926
C             8.84307575         20.20562935        127.20654017
Si            9.45375156         16.89494324        127.20906550
C            13.07203102         11.32171059        127.21580226
Si           16.06668663          9.78316879        127.21896083
C            22.68955231          9.19609547        127.22444636
Si           25.77539062         10.54270267        127.22452266
C            30.43367958         15.29169083        127.22451503
Si           31.31824493         18.53887749        127.22020442
C            27.36333466         29.10020638        124.29549891
Si           24.37426376         30.64477730        124.29183680
C            17.75103760         31.22607803        124.28708369
Si           14.66856194         29.87304878        124.28593165
C            10.02653027         25.11115456        124.28757197
Si            9.12355995         21.87037659        124.29012019
C             9.93237782         15.27543354        124.29427821
Si           11.93275833         12.56819153        124.29913813
C            17.64129448          9.17161369        124.30404383
Si           21.00481796          9.07349014        124.30826289
C            27.24761772         11.37381840        124.30953700
Si           29.45956993         13.90907669        124.30917079
C            31.58806419         20.20810318        124.30405146
Si           30.97702789         23.51620865        124.30153376
C            30.49697876         25.13680077        121.38831050
Si           28.50374031         27.84804153        121.38223750
C            22.80082130         31.25583839        121.37849147
Si           19.43671227         31.35405159        121.37443263
C            13.20204639         29.03473473        121.37464625
Si           10.99483585         26.49637794        121.37391383
C             8.84190083         20.20487022        121.37897975
Si            9.45327473         16.89537048        121.38113887
C            13.07260323         11.31899929        121.38763911
Si           16.06657410          9.78276062        121.39096553
C            22.69108772          9.19661331        121.39599330
Si           25.77449799         10.54295158        121.39651210
C            30.43279076         15.29357433        121.39693934
Si           31.31815529         18.53947830        121.39292628
C            27.36443901         29.09682655        118.46613795
Si           24.37539864         30.64501381        118.46300227
C            17.75195122         31.22696495        118.45863063
Si           14.66970730         29.87274361        118.45869929
C            10.02599716         25.11260986        118.45917231
Si            9.12228870         21.87060165        118.46272761
C             9.93115902         15.27575779        118.46676356
Si           11.93297768         12.56803894        118.47188288
C            17.64070892          9.17068958        118.47665889
Si           21.00581360          9.07348061        118.48048121
C            27.24734688         11.37382698        118.48221308
Si           29.46049118         13.91040707        118.48128993
C            31.58917236         20.20713425        118.47683436
Si           30.97683907         23.51687813        118.47289759
C            30.49782753         25.13670540        115.55621821
Si           28.50329971         27.84860992        115.55068690
C            22.80194092         31.25819206        115.54581935
Si           19.43642807         31.35456085        115.54269892
C            13.20176601         29.03654671        115.54285914
Si           10.99443722         26.49627686        115.54275233
C             8.84307575         20.20562935        115.54692561
Si            9.45375156         16.89494324        115.54945857
C            13.07203102         11.32171059        115.55619532
Si           16.06668663          9.78316879        115.55935389
C            22.68955231          9.19609547        115.56483180
Si           25.77539062         10.54270267        115.56491572
C            30.43367958         15.29169083        115.56490046
Si           31.31824493         18.53887749        115.56059748
C            27.36333466         29.10020638        112.63589198
Si           24.37426376         30.64477730        112.63222224
C            17.75103760         31.22607803        112.62746913
Si           14.66856194         29.87304878        112.62632472
C            10.02653027         25.11115456        112.62796504
Si            9.12355995         21.87037659        112.63050563
C             9.93237782         15.27543354        112.63466365
Si           11.93275833         12.56819153        112.63953120
C            17.64129448          9.17161369        112.64443690
Si           21.00481796          9.07349014        112.64865596
C            27.24761772         11.37381840        112.64993006
Si           29.45956993         13.90907669        112.64956385
C            31.58806419         20.20810318        112.64443690
Si           30.97702789         23.51620865        112.64192683
C            30.49697876         25.13680077        109.72870115
Si           28.50374031         27.84804153        109.72262815
C            22.80082130         31.25583839        109.71888212
Si           19.43671227         31.35405159        109.71482328
C            13.20204639         29.03473473        109.71503690
Si           10.99483585         26.49637794        109.71430448
C             8.84190083         20.20487022        109.71937040
Si            9.45327473         16.89537048        109.72152952
C            13.07260323         11.31899929        109.72802976
Si           16.06657410          9.78276062        109.73135618
C            22.69108772          9.19661331        109.73638395
Si           25.77449799         10.54295158        109.73690275
C            30.43279076         15.29357433        109.73732999
Si           31.31815529         18.53947830        109.73331693
C            27.36443901         29.09682655        106.80652860
Si           24.37539864         30.64501381        106.80339292
C            17.75195122         31.22696495        106.79902128
Si           14.66970730         29.87274361        106.79908994
C            10.02599716         25.11260986        106.79956296
Si            9.12228870         21.87060165        106.80311826
C             9.93115902         15.27575779        106.80715421
Si           11.93297768         12.56803894        106.81227353
C            17.64070892          9.17068958        106.81704954
Si           21.00581360          9.07348061        106.82087186
C            27.24734688         11.37382698        106.82260373
Si           29.46049118         13.91040707        106.82168058
C            31.58917236         20.20713425        106.81722501
Si           30.97683907         23.51687813        106.81328824
C            30.49782753         25.13670540        103.89660886
Si           28.50329971         27.84860992        103.89107755
C            22.80194092         31.25819206        103.88621000
Si           19.43642807         31.35456085        103.88308957
C            13.20176601         29.03654671        103.88324979
Si           10.99443722         26.49627686        103.88314298
C             8.84307575         20.20562935        103.88731626
Si            9.45375156         16.89494324        103.88984922
C            13.07203102         11.32171059        103.89658597
Si           16.06668663          9.78316879        103.89974454
C            22.68955231          9.19609547        103.90522245
Si           25.77539062         10.54270267        103.90530637
C            30.43367958         15.29169083        103.90529111
Si           31.31824493         18.53887749        103.90098813
C            27.36333466         29.10020638        100.97628263
Si           24.37426376         30.64477730        100.97261289
C            17.75103760         31.22607803        100.96785978
Si           14.66856194         29.87304878        100.96671537
C            10.02653027         25.11115456        100.96835569
Si            9.12355995         21.87037659        100.97089628
C             9.93237782         15.27543354        100.97505430
Si           11.93275833         12.56819153        100.97992185
C            17.64129448          9.17161369        100.98482755
Si           21.00481796          9.07349014        100.98904661
C            27.24761772         11.37381840        100.99032071
Si           29.45956993         13.90907669        100.98995450
C            31.58806419         20.20810318        100.98482755
Si           30.97702789         23.51620865        100.98231748
C            30.49697876         25.13680077         98.06909180
Si           28.50374031         27.84804153         98.06301880
C            22.80082130         31.25583839         98.05927277
Si           19.43671227         31.35405159         98.05521393
C            13.20204639         29.03473473         98.05542755
Si           10.99483585         26.49637794         98.05469513
C             8.84190083         20.20487022         98.05976105
Si            9.45327473         16.89537048         98.06192017
C            13.07260323         11.31899929         98.06842041
Si           16.06657410          9.78276062         98.07174683
C            22.69108772          9.19661331         98.07677460
Si           25.77449799         10.54295158         98.07729340
C            30.43279076         15.29357433         98.07772064
Si           31.31815529         18.53947830         98.07370758
C            27.36443901         29.09682655         95.14691925
Si           24.37539864         30.64501381         95.14378357
C            17.75195122         31.22696495         95.13941193
Si           14.66970730         29.87274361         95.13948059
C            10.02599716         25.11260986         95.13995361
Si            9.12228870         21.87060165         95.14350891
C             9.93115902         15.27575779         95.14754486
Si           11.93297768         12.56803894         95.15266418
C            17.64070892          9.17068958         95.15744019
Si           21.00581360          9.07348061         95.16126251
C            27.24734688         11.37382698         95.16299438
Si           29.46049118         13.91040707         95.16207123
C            31.58917236         20.20713425         95.15761566
Si           30.97683907         23.51687813         95.15367889
C            30.49782753         25.13670540         92.23699951
Si           28.50329971         27.84860992         92.23146820
C            22.80194092         31.25819206         92.22660065
Si           19.43642807         31.35456085         92.22348022
C            13.20176601         29.03654671         92.22364044
Si           10.99443722         26.49627686         92.22353363
C             8.84307575         20.20562935         92.22770691
Si            9.45375156         16.89494324         92.23023987
C            13.07203102         11.32171059         92.23697662
Si           16.06668663          9.78316879         92.24013519
C            22.68955231          9.19609547         92.24561310
Si           25.77539062         10.54270267         92.24569702
C            30.43367958         15.29169083         92.24568176
Si           31.31824493         18.53887749         92.24137878
C            27.36333466         29.10020638         89.31667328
Si           24.37426376         30.64477730         89.31300354
C            17.75103760         31.22607803         89.30825043
Si           14.66856194         29.87304878         89.30710602
C            10.02653027         25.11115456         89.30874634
Si            9.12355995         21.87037659         89.31128693
C             9.93237782         15.27543354         89.31544495
Si           11.93275833         12.56819153         89.32031250
C            17.64129448          9.17161369         89.32521820
Si           21.00481796          9.07349014         89.32943726
C            27.24761772         11.37381840         89.33071136
Si           29.45956993         13.90907669         89.33034515
C            31.58806419         20.20810318         89.32521820
Si           30.97702789         23.51620865         89.32270813
C            30.49697876         25.13680077         86.40948486
Si           28.50374031         27.84804153         86.40341187
C            22.80082130         31.25583839         86.39965820
Si           19.43671227         31.35405159         86.39560699
C            13.20204639         29.03473473         86.39582062
Si           10.99483585         26.49637794         86.39508057
C             8.84190083         20.20487022         86.40015411
Si            9.45327473         16.89537048         86.40231323
C            13.07260323         11.31899929         86.40880585
Si           16.06657410          9.78276062         86.41213226
C            22.69108772          9.19661331         86.41716766
Si           25.77449799         10.54295158         86.41768646
C            30.43279076         15.29357433         86.41810608
Si           31.31815529         18.53947830         86.41410065
C            27.36443901         29.09682655         83.48731232
Si           24.37539864         30.64501381         83.48417664
C            17.75195122         31.22696495         83.47979736
Si           14.66970730         29.87274361         83.47987366
C            10.02599716         25.11260986         83.48033905
Si            9.12228870         21.87060165         83.48390198
C             9.93115902         15.27575779         83.48793793
Si           11.93297768         12.56803894         83.49305725
C            17.64070892          9.17068958         83.49783325
Si           21.00581360          9.07348061         83.50164795
C            27.24734688         11.37382698         83.50337982
Si           29.46049118         13.91040707         83.50246429
C            31.58917236         20.20713425         83.49800110
Si           30.97683907         23.51687813         83.49406433
C            30.49782753         25.13670540         80.57738495
Si           28.50329971         27.84860992         80.57186127
C            22.80194092         31.25819206         80.56699371
Si           19.43642807         31.35456085         80.56386566
C            13.20176601         29.03654671         80.56403351
Si           10.99443722         26.49627686         80.56391907
C             8.84307575         20.20562935         80.56809998
Si            9.45375156         16.89494324         80.57062531
C            13.07203102         11.32171059         80.57736206
Si           16.06668663          9.78316879         80.58052826
C            22.68955231          9.19609547         80.58600616
Si           25.77539062         10.54270267         80.58609009
C            30.43367958         15.29169083         80.58607483
Si           31.31824493         18.53887749         80.58176422
C            27.36333466         29.10020638         77.65706635
Si           24.37426376         30.64477730         77.65339661
C            17.75103760         31.22607803         77.64864349
Si           14.66856194         29.87304878         77.64749146
C            10.02653027         25.11115456         77.64913177
Si            9.12355995         21.87037659         77.65167999
C             9.93237782         15.27543354         77.65583801
Si           11.93275833         12.56819153         77.66069794
C            17.64129448          9.17161369         77.66561127
Si           21.00481796          9.07349014         77.66982269
C            27.24761772         11.37381840         77.67110443
Si           29.45956993         13.90907669         77.67073059
C            31.58806419         20.20810318         77.66561127
Si           30.97702789         23.51620865         77.66309357
C            30.49345016         25.13667679         74.74460602
Si           28.50265312         27.84926987         74.74101257
C            22.80031586         31.25629044         74.73478699
Si           19.43640137         31.35407066         74.73233795
C            13.19307709         29.03934669         74.73026276
Si           10.99349689         26.49499512         74.73175049
C             8.84194279         20.20494080         74.73413849
Si            9.45308018         16.89516068         74.73812103
C            13.07197380         11.31981754         74.74346924
Si           16.06619072          9.78282070         74.74798584
C            22.69076920          9.19640160         74.75267029
Si           25.77544022         10.54285431         74.75432587
C            30.43252754         15.29233932         74.75290680
Si           31.31744385         18.53776360         74.75019836
C            27.36434174         29.09672356         71.82447815
Si           24.37415886         30.64456558         71.81796265
C            17.75235367         31.22600174         71.81579590
Si           14.66862297         29.87221336         71.81398773
C            10.02619457         25.11280060         71.81632996
Si            9.12227058         21.87018394         71.81694794
C             9.93181324         15.27562523         71.82359314
Si           11.93346310         12.56741905         71.82618713
C            17.64107513          9.17143250         71.83351135
Si           21.00676346          9.07380772         71.83547974
C            27.24676895         11.37456512         71.83934021
Si           29.46058273         13.91045952         71.83607483
C            31.58448601         20.20623779         71.83398438
Si           30.96723747         23.51406288         71.82961273
C            30.48927307         25.13281441         68.90806580
Si           28.49932480         27.84932899         68.90387726
C            22.80090523         31.25527954         68.89952087
Si           19.43526268         31.35400581         68.89642334
C            13.20288467         29.03442574         68.89545441
Si           10.99410629         26.49426842         68.89661407
C             8.84385204         20.20445633         68.90079498
Si            9.45522785         16.89359856         68.90346527
C            13.07400990         11.32155228         68.90919495
Si           16.06909561          9.78329468         68.91384125
C            22.69105911          9.19790840         68.91864014
Si           25.77683640         10.54483318         68.92019653
C            30.43287468         15.29191494         68.91968536
Si           31.31630898         18.53858566         68.91568756
C            27.36315155         29.09854698         65.98457336
Si           24.37381744         30.64537239         65.98123169
C            17.75261116         31.22466469         65.97737885
Si           14.67248631         29.86688995         65.97769928
C            10.02736855         25.11045074         65.97857666
Si            9.12437630         21.86817169         65.98208618
C             9.93553448         15.27624798         65.98561096
Si           11.93655300         12.56878567         65.99075317
C            17.64393234          9.17321301         65.99679565
Si           21.00864601          9.07497120         66.00090790
C            27.24880028         11.37594700         66.00411224
Si           29.46238518         13.91054440         66.00325775
C            31.58875275         20.20687103         65.99878693
Si           30.97461700         23.51578712         65.99096680
C            30.49569702         25.13902664         63.07417297
Si           28.50078011         27.85137177         63.06585693
C            22.80058289         31.25588608         63.06251526
Si           19.43581390         31.35279274         63.05944443
C            13.21024036         29.02449608         63.05929947
Si           10.99753761         26.48917007         63.05958176
C             8.84500408         20.20412254         63.06459045
Si            9.45773792         16.89380646         63.06680679
C            13.07884407         11.32183361         63.07431030
Si           16.07488441          9.78447151         63.07712936
C            22.69671440          9.19853783         63.08643723
Si           25.78187752         10.54537773         63.08646774
C            30.43759346         15.29374027         63.08754730
Si           31.32064629         18.54109955         63.08029938
C            27.36173248         29.09940720         60.14712143
Si           24.37329292         30.64587593         60.14167023
C            17.75259399         31.22319412         60.14010239
Si           14.67202854         29.86453629         60.13872910
C            10.02866173         25.10901642         60.14094543
Si            9.12484837         21.86571121         60.14291382
C             9.94012260         15.27516937         60.14942169
Si           11.94220543         12.56767082         60.15365219
C            17.65871620          9.17648315         60.16179657
Si           21.02006149          9.07440853         60.16605759
C            27.25600433         11.37597561         60.16992188
Si           29.47027016         13.91219711         60.16777802
C            31.58855247         20.21041298         60.16257858
Si           30.97706985         23.52120018         60.15396500
C            30.49525070         25.13926506         57.23421097
Si           28.50041580         27.85171127         57.22869110
C            22.79919243         31.25523376         57.22112656
Si           19.43493652         31.35276985         57.21915817
C            13.20466614         29.03132057         57.21801758
Si           10.99508190         26.49068260         57.22006989
C             8.84676456         20.20204735         57.22286987
Si            9.46174335         16.89129639         57.22818375
C            13.08608532         11.32185173         57.23567581
Si           16.08278084          9.78497314         57.24206543
C            22.70493507          9.19587326         57.24925232
Si           25.79122925         10.54144287         57.25094223
C            30.44569778         15.29332924         57.24898148
Si           31.32444000         18.54273605         57.24377060
C            27.36126709         29.09630013         54.30915070
Si           24.37356186         30.64312553         54.30282211
C            17.75217247         31.22298431         54.29750443
Si           14.66819572         29.86873055         54.29707718
C            10.02951241         25.10817528         54.29990768
Si            9.12737179         21.86407852         54.30235291
C             9.94658184         15.27283669         54.31023788
Si           11.95025253         12.56664658         54.31412506
C            17.66185760          9.17491817         54.32571411
Si           21.02724457          9.07252026         54.32874680
C            27.26919174         11.36963940         54.33556747
Si           29.48072815         13.90876198         54.33026886
C            31.59178734         20.20953560         54.32334518
Si           30.97773743         23.51926041         54.31639481
C            30.49432755         25.13601875         51.39596939
Si           28.49804497         27.84732437         51.38962936
C            22.79851913         31.25065994         51.38134003
Si           19.43449402         31.35038948         51.37635803
C            13.20395565         29.02913666         51.37708282
Si           10.99517345         26.48768044         51.37751389
C             8.84994507         20.19755554         51.38449097
Si            9.46766090         16.88680267         51.38772583
C            13.09921932         11.32089424         51.39878082
Si           16.09509277          9.78426552         51.40300751
C            22.71866417          9.19344807         51.41370010
Si           25.80719566         10.53525639         51.41485214
C            30.45516586         15.28975582         51.41168213
Si           31.32777977         18.54048347         51.40552902
C            27.35830307         29.08834839         48.46546173
Si           24.36935234         30.63794708         48.45953369
C            17.75054932         31.21992874         48.45447922
Si           14.66785049         29.86420059         48.45449066
C            10.03104591         25.10220718         48.45756912
Si            9.12934685         21.85788155         48.46187973
C             9.95636654         15.26776791         48.46941757
Si           11.96591854         12.56464195         48.47623062
C            17.67834091          9.17294693         48.48847580
Si           21.04199791          9.06883812         48.49306107
C            27.28841972         11.35670376         48.49879456
Si           29.49460793         13.90006542         48.49527359
C            31.59271812         20.20323753         48.48184204
Si           30.97431755         23.51173973         48.47865295
C            30.48664474         25.12148666         45.55239487
Si           28.49609184         27.84082794         45.54449081
C            22.79882431         31.24403191         45.53501129
Si           19.43297768         31.34560966         45.53294754
C            13.20567131         29.02126503         45.53357697
Si           10.99616718         26.48097801         45.53556824
C             8.85360146         20.19045830         45.54343414
Si            9.47553349         16.88094521         45.54790497
C            13.13118649         11.33071804         45.56252289
Si           16.11757278          9.78084946         45.56569672
C            22.73606300          9.18537807         45.57956314
Si           25.82615852         10.52213955         45.58005524
C            30.46875954         15.27866936         45.57891464
Si           31.33214760         18.53039551         45.56668091
C            27.35717773         29.08033180         42.61846161
Si           24.36850929         30.63093185         42.61310577
C            17.74962044         31.21453476         42.61243820
Si           14.66803932         29.85629082         42.61123276
C            10.03054523         25.09379196         42.61783600
Si            9.13144970         21.84893608         42.62049103
C             9.96891880         15.25924683         42.63298798
Si           11.98310566         12.55885983         42.64023590
C            17.69739914          9.16915417         42.65272141
Si           21.06021500          9.06155300         42.65833282
C            27.31173897         11.34073734         42.66368484
Si           29.50824738         13.89199162         42.65737915
C            31.59187698         20.19607925         42.64511108
Si           30.97392273         23.50455666         42.63129425
C            30.48816490         25.12083626         39.70745468
Si           28.49349976         27.83110046         39.69820404
C            22.79683113         31.23752403         39.69010162
Si           19.43085480         31.33943939         39.68998718
C            13.20560169         29.00983238         39.69151688
Si           10.99606419         26.46966362         39.69429016
C             8.85695553         20.17878342         39.70313263
Si            9.48410225         16.86962128         39.70987701
C            13.13595772         11.31564140         39.72380066
Si           16.12920570          9.77587318         39.73192596
C            22.75429726          9.17246246         39.74370575
Si           25.84573936         10.50642300         39.74560165
C            30.48013687         15.27359962         39.73772049
Si           31.34753227         18.52460861         39.72732544
C            27.35455894         29.06864929         36.77376938
Si           24.36823654         30.62009048         36.77047729
C            17.74803352         31.20731926         36.76866913
Si           14.66769409         29.84632492         36.76981735
C            10.03148460         25.08172607         36.77581787
Si            9.13489342         21.83623886         36.78055954
C             9.98075485         15.24766159         36.79519272
Si           11.99563885         12.55035210         36.80224228
C            17.71213722          9.15868378         36.82186127
Si           21.07686615          9.04793167         36.82385635
C            27.33131218         11.32600117         36.82875824
Si           29.52246284         13.88075352         36.81925201
C            31.59879494         20.18904495         36.80482101
Si           30.97617531         23.49756622         36.79220581
C            30.49649048         25.10953331         33.86922073
Si           28.49362564         27.81505013         33.85931778
C            22.79483223         31.22703362         33.85000229
Si           19.42988586         31.32917023         33.84847641
C            13.20580196         28.99717903         33.85152435
Si           10.99871826         26.45592690         33.85348129
C             8.86278152         20.16256714         33.86605835
Si            9.49579525         16.85528564         33.87220001
C            13.15525341         11.30648327         33.89142609
Si           16.14908028          9.76644611         33.89986038
C            22.77104378          9.15635395         33.90948868
Si           25.86316299         10.49116135         33.90734863
C            30.48954773         15.25936890         33.89566040
Si           31.34702682         18.51706314         33.88542175
C            27.34707832         29.04390144         30.93553162
Si           24.36281204         30.60055923         30.93064308
C            17.74595833         31.19491768         30.92895317
Si           14.66839981         29.82978630         30.92910576
C            10.03606415         25.06410599         30.93722534
Si            9.14391327         21.81811905         30.94240379
C             9.99843597         15.23367882         30.95905495
Si           12.01704216         12.54028130         30.96887779
C            17.73029137          9.14559364         30.98737717
Si           21.09122849          9.03525352         30.99198341
C            27.34330940         11.30898952         30.98883438
Si           29.53068352         13.86378956         30.98329353
C            31.59928894         20.18041039         30.96531105
Si           30.97871017         23.48436737         30.95285225
C            30.49135971         25.09064674         28.02716064
Si           28.48430252         27.79084206         28.02061462
C            22.79185486         31.20590973         28.00787926
Si           19.42719650         31.30962181         28.00844574
C            13.21030617         28.97654915         28.00987434
Si           11.00580311         26.43415451         28.01461792
C             8.87960815         20.14520073         28.02658081
Si            9.51605225         16.83999825         28.03615952
C            13.17726135         11.30072212         28.05703163
Si           16.16787338          9.75661373         28.06490517
C            22.78279305          9.13885880         28.08081055
Si           25.86932755         10.47802639         28.07575417
C            30.48711967         15.25019550         28.05876923
Si           31.33961487         18.50165558         28.04845810
C            27.33832169         29.01530266         25.09585190
Si           24.35793304         30.58178711         25.08900833
C            17.74584961         31.17507935         25.08861542
Si           14.66634655         29.81215477         25.08740807
C            10.04229069         25.04382133         25.09848213
Si            9.15245056         21.79671860         25.10135841
C            10.01718712         15.21887493         25.12404251
Si           12.03555012         12.52535725         25.13223648
C            17.74218750          9.12644291         25.15393639
Si           21.10661507          9.00134087         25.15520477
C            27.34019661         11.29409885         25.15141487
Si           29.53141212         13.85062504         25.14453888
C            31.59456062         20.15987587         25.12652206
Si           30.97505188         23.47020912         25.11189461
C            30.50902367         25.08340454         22.18650818
Si           28.51046562         27.80135345         22.17726326
C            22.79274368         31.21373367         22.16793633
Si           19.42116737         31.33435631         22.16701508
C            13.19003582         28.97774506         22.17100716
Si           10.96378136         26.44304276         22.17351913
C             8.86583805         20.12236214         22.18646049
Si            9.48465919         16.80602264         22.19820976
C            13.17870331         11.26867104         22.21877670
Si           16.15988350          9.69192123         22.23318100
C            22.79458809          9.07187176         22.23883438
Si           25.89339066         10.41304016         22.23981476
C            30.50638962         15.22044849         22.21949196
Si           31.38720894         18.47913742         22.21118355
C            27.39897919         29.09687805         19.26105309
Si           24.40817642         30.68408585         19.25275230
C            17.70882797         31.26042747         19.25490379
Si           14.60004330         29.91618347         19.25287628
C             9.92061901         25.07372093         19.26517105
Si            9.02756500         21.80578613         19.26622200
C             9.91728973         15.13520241         19.29405975
Si           11.93778992         12.41770840         19.29983711
C            17.72815323          8.98254204         19.32979774
Si           21.11080360          8.83675003         19.32685852
C            27.41204262         11.18962860         19.32883453
Si           29.63053322         13.75010300         19.30977249
C            31.72496986         20.14886284         19.29438210
Si           31.10446167         23.47991180         19.27794266
C            30.69512558         25.17233849         16.38113785
Si           28.64146042         27.86407089         16.37340736
C            22.81960487         31.41399574         16.35929680
Si           19.43471718         31.47336388         16.36216736
C            13.02313805         29.13706589         16.36588860
Si           10.84636402         26.54316139         16.37031746
C             8.65677166         20.08182335         16.38120079
Si            9.33798122         16.76577187         16.39581871
C            13.04917336         11.04618645         16.41745377
Si           16.07354736          9.52382755         16.43765450
C            22.86313820          8.83343315         16.43568420
Si           25.94234848         10.23855305         16.43997574
C            30.71322823         15.12436390         16.41568375
Si           31.54591370         18.40361214         16.41102409
C            27.37415314         29.08428574         13.49302578
Si           24.35479355         30.55350304         13.47455311
C            17.68228722         31.23722649         13.48898029
Si           14.64792919         29.79833603         13.47796822
C             9.92729092         25.02907372         13.49760723
Si            9.15639114         21.75989914         13.49081993
C             9.95220947         15.09920979         13.52671432
Si           12.03558636         12.46468639         13.52427673
C            17.75111580          8.94913673         13.56823540
Si           21.10744095          8.92863083         13.55230045
C            27.42446899         11.18824100         13.56392670
Si           29.53522682         13.80013657         13.53666496
C            31.71845245         20.15078545         13.52703381
Si           30.98649025         23.42652512         13.50190449
C            29.90662956         24.59817886         10.57547951
Si           27.60610008         27.00818825         10.87153339
C            22.75812721         30.43250847         10.55228138
Si           19.44030762         30.12842560         10.86060810
C            13.73788166         28.47700310         10.55882931
Si           11.89871311         25.70005035         10.87069607
C             9.61884689         20.21940613         10.57384396
Si           10.64480877         17.05062675         10.89142418
C            13.52572060         11.85179615         10.60802555
Si           16.64768791         10.69173527         10.92800331
C            22.49878120          9.70548534         10.62723446
Si           25.35913086         11.41402912         10.93280315
C            29.79227257         15.36623478         10.60858440
Si           30.24152756         18.67029953         10.90769100
C            25.28586960         25.62379646          8.66779327
Si           22.52248001         27.44994926          8.83703136
C            19.07158470         27.44723701          8.66228008
Si           15.91678810         26.42882919          8.84183693
C            13.75799751         23.73507881          8.67199039
Si           12.57894230         20.63923454          8.85339451
C            13.33678532         17.27181053          8.68660831
Si           15.03085041         14.42753887          8.87737560
C            18.14074326         12.92962265          8.70945835
Si           21.42351151         12.48702145          8.89518738
C            24.53976631         13.97468853          8.71351910
Si           26.94035530         16.25850487          8.88485432
C            27.71852875         19.62133980          8.69506741
Si           27.43149185         22.92145538          8.85757828
