 392 atomic                                                                                                              
 periodic  60.00000000  60.00000000  81.76000000                                                                         
C            40.24951581         34.91488107         80.31823878
Si           38.25553834         37.60324159         80.25899923
C            32.57707471         41.07116399         80.28459421
Si           29.23328369         41.16517303         80.32220091
C            22.99426092         38.86833325         80.28778316
Si           20.73273874         36.30619328         80.26427292
C            18.66176415         29.96147994         80.30110730
Si           19.25580887         26.65545259         80.31820425
C            22.88710039         21.15734717         80.32921570
Si           25.89472216         19.55571847         80.26591682
C            32.50098222         18.95551694         80.28150953
Si           35.64306314         20.33989754         80.31739687
C            40.23662901         25.05292720         80.30234654
Si           41.11729409         28.36225903         80.32855980
C            37.08788587         38.91657711         77.34954744
Si           34.16596409         40.39264313         77.39210824
C            27.51119839         41.05104351         77.34552642
Si           24.41092032         39.65982356         77.37088126
C            19.78171621         34.90998913         77.34315645
Si           18.92779813         31.67981080         77.33587251
C            19.77118273         25.08195085         77.34420384
Si           21.73555096         22.39471939         77.36396993
C            27.45817230         18.99887416         77.40125403
Si           30.83471105         18.81444489         77.37090498
C            37.11415707         21.10483000         77.39882404
Si           39.32276052         23.70901904         77.35936946
C            41.33428087         30.03747694         77.36491397
Si           40.79123948         33.34266740         77.38527926
C            40.28805480         34.95119720         74.49526538
Si           38.31182443         37.61763085         74.46422930
C            32.56049454         41.01128972         74.49090967
Si           29.17742096         41.11007037         74.45196039
C            22.92236959         38.82600993         74.48631510
Si           20.77941191         36.31920936         74.49146065
C            18.60279540         30.02766583         74.44222892
Si           19.21087214         26.67814780         74.48727082
C            22.94762228         21.16047392         74.49523951
Si           25.87463937         19.58988190         74.49071291
C            32.51100911         18.94230746         74.46942455
Si           35.63492718         20.27588548         74.47128151
C            40.22930841         25.07968102         74.50105979
Si           41.08864162         28.33915487         74.48989799
C            37.12968959         38.88507025         71.52071159
Si           34.12482178         40.45271318         71.53361477
C            27.50213672         41.04671600         71.53503657
Si           24.41444995         39.68181779         71.52425010
C            19.77221461         34.90304931         71.56848432
Si           18.90132451         31.69160640         71.53674716
C            19.71792662         25.10033321         71.53027807
Si           21.78388879         22.37784717         71.51256932
C            27.48414022         18.99727401         71.57644419
Si           30.85690814         18.87581638         71.51476032
C            37.04655435         21.12619868         71.53610069
Si           39.31964996         23.67948346         71.57759736
C            41.36061240         30.03213246         71.58080888
Si           40.74384841         33.33781912         71.53594011
C            40.28019104         34.95267427         68.65495780
Si           38.30159542         37.66773942         68.60148799
C            32.57985984         41.05900682         68.61457843
Si           29.17364813         41.12959685         68.58263445
C            22.92241438         38.80509650         68.59657067
Si           20.71630937         36.29921364         68.61649908
C            18.63036690         29.99947094         68.64556254
Si           19.23094726         26.65165390         68.60277645
C            22.87825300         21.17828582         68.62041921
Si           25.92412719         19.56765914         68.61033262
C            32.48609197         18.95238065         68.62596239
Si           35.60794002         20.33590151         68.65808711
C            40.24261175         25.07838024         68.64733245
Si           41.12150260         28.36618548         68.59181615
C            37.10537958         38.90007605         65.69759944
Si           34.11929629         40.42825772         65.71049431
C            27.47861218         40.98059212         65.69131517
Si           24.38645574         39.68056984         65.68018262
C            19.79758311         34.90673014         65.65473131
Si           18.88317975         31.63741148         65.73283364
C            19.75043549         25.10116427         65.71594465
Si           21.73452577         22.35730138         65.71806331
C            27.46391677         18.96570526         65.69727131
Si           30.85002149         18.87928166         65.71308084
C            37.11846841         21.17531850         65.72693097
Si           39.30942193         23.66142083         65.70532730
C            41.40016161         30.01211801         65.69891372
Si           40.73560145         33.27859572         65.66222403
C            40.24978018         34.94869810         62.77163388
Si           38.25622348         37.67411633         62.81058127
C            32.52787857         41.01982296         62.77479630
Si           29.19223439         41.14527384         62.77973360
C            22.98628901         38.83855190         62.79741215
Si           20.73696408         36.31333625         62.74133411
C            18.66406610         30.01831817         62.76749525
Si           19.24909661         26.66892373         62.78809483
C            22.90153701         21.17640844         62.81771542
Si           25.90441573         19.54837285         62.75531262
C            32.51615097         18.94038575         62.78825825
Si           35.63042791         20.29221156         62.79630713
C            40.22684299         25.10173455         62.75247374
Si           41.12095979         28.32965390         62.74977342
C            37.16621136         38.86740228         59.87540088
Si           34.11732489         40.44582233         59.84141651
C            27.49710520         41.00643340         59.85924197
Si           24.40556673         39.71529306         59.81671363
C            19.75682777         34.94813234         59.87868124
Si           18.90804196         31.64733397         59.83648342
C            19.70998700         25.05808834         59.89365315
Si           21.72428739         22.38360450         59.86351003
C            27.49417758         18.93624286         59.84199077
Si           30.80591531         18.86396067         59.83453884
C            37.04795046         21.10555700         59.86819331
Si           39.29285841         23.71639590         59.90721671
C            41.34053880         30.00161775         59.86108976
Si           40.77597661         33.35557309         59.82086718
C            40.26879429         34.90801840         56.96793032
Si           38.29224630         37.66543186         56.95196995
C            32.52593629         41.04701946         56.94717101
Si           29.17129258         41.11031234         56.92183931
C            22.95056169         38.84466280         56.89759932
Si           20.71492854         36.30799012         56.90494580
C            18.64994352         30.00666854         56.95984762
Si           19.24218331         26.68185549         56.95889078
C            22.90893643         21.14366628         56.90843606
Si           25.92394832         19.61436604         56.95057369
C            32.49796459         18.95757082         56.98393079
Si           35.64050365         20.33270767         56.92047364
C            40.23834319         25.04491394         56.95355236
Si           41.14077684         28.32970689         56.92343318
C            37.16478793         38.86059315         54.05495740
Si           34.14696870         40.43169132         54.02156929
C            27.49811463         40.99824542         54.01045083
Si           24.41961708         39.67065433         54.02977160
C            19.80019137         34.94201062         54.05137445
Si           18.85519112         31.68554829         54.01251710
C            19.74596622         25.05772253         54.00342785
Si           21.77698006         22.37715204         53.99369962
C            27.47037329         18.95707544         54.03594035
Si           30.79555013         18.82720933         54.06734939
C            37.05149958         21.11619316         54.05803598
Si           39.26060368         23.70872428         54.01405081
C            41.39258176         29.99301560         53.98815071
Si           40.73645411         33.33371477         54.01021468
C            40.24660658         34.91310598         51.06751417
Si           38.29060842         37.66140188         51.11333041
C            32.52443374         41.01146218         51.12137917
Si           29.22838728         41.18826611         51.06950615
C            22.98496039         38.80334844         51.09478110
Si           20.72932107         36.28069871         51.06833951
C            18.59186973         29.99057885         51.05763110
Si           19.20709598         26.65806852         51.09626026
C            22.93373107         21.13079067         51.13039345
Si           25.90937537         19.56713961         51.12080162
C            32.52374456         18.97765237         51.10973291
Si           35.58651721         20.30361434         51.13452228
C            40.25990667         25.09581442         51.11796537
Si           41.13587740         28.33624852         51.06705731
C            37.09412187         38.90805199         48.21463372
Si           34.16781416         40.40156698         48.21170668
C            27.47980535         41.06072919         48.17922160
Si           24.42026522         39.67635738         48.13756206
C            19.79410212         34.92144545         48.14222462
Si           18.91708369         31.69374658         48.18078009
C            19.75314755         25.06445664         48.16951359
Si           21.74856999         22.36504531         48.18573181
C            27.47396414         18.99624231         48.17110150
Si           30.84024249         18.86701998         48.20395753
C            37.09826216         21.11061160         48.20608807
Si           39.27157623         23.72958711         48.18881251
C            41.36583550         30.00948448         48.18692308
Si           40.73847053         33.29608204         48.18453433
C            40.24832004         34.94001012         45.22980195
Si           38.26007710         37.61081108         45.25274647
C            32.56089838         41.01359378         45.22082209
Si           29.19134696         41.15957117         45.27753251
C            22.92618703         38.86446297         45.24984259
Si           20.74806151         36.30598726         45.24868533
C            18.62328795         29.98938795         45.23887177
Si           19.21311328         26.71166951         45.28167115
C            22.92832502         21.13201583         45.25842871
Si           25.86389982         19.57648962         45.25244513
C            32.52033786         18.95970480         45.25371228
Si           35.60139895         20.30266329         45.27556527
C            40.25230074         25.05981380         45.24110834
Si           41.09799621         28.33651961         45.28474463
C            37.13809805         38.87191161         42.32616987
Si           34.16223315         40.42356947         42.30175648
C            27.48384576         41.01050290         42.32814280
Si           24.45770428         39.70540609         42.36453046
C            19.76703952         34.94039934         42.36155919
Si           18.90642119         31.65266594         42.36534028
C            19.73063932         25.03793859         42.35465875
Si           21.78465690         22.38336023         42.37566356
C            27.43471710         18.99207465         42.34154002
Si           30.81881430         18.87989531         42.36286703
C            37.06166586         21.15594962         42.35115162
Si           39.31070916         23.69005373         42.37896927
C            41.39183000         30.03442052         42.32123329
Si           40.72711344         33.28241945         42.34610319
C            40.24797840         34.96577750         39.39667892
Si           38.31362945         37.61356160         39.38647533
C            32.53032654         41.00560488         39.40994309
Si           29.16515934         41.14485537         39.39419111
C            22.94457716         38.83687537         39.40098039
Si           20.72284182         36.25987400         39.40335570
C            18.61874380         29.97836908         39.43130558
Si           19.24359479         26.65403555         39.40176968
C            22.88679680         21.10138118         39.42562303
Si           25.88818085         19.56100442         39.44158692
C            32.51163690         18.95978156         39.46360890
Si           35.63680573         20.32145207         39.44771545
C            40.26338357         25.10467713         39.42106351
Si           41.10253404         28.37484900         39.40279736
C            37.08938185         38.88027321         36.52234420
Si           34.10966708         40.40039638         36.51178392
C            27.49524398         41.04305746         36.51061050
Si           24.41692224         39.64711235         36.50093090
C            19.78695029         34.93854748         36.53134967
Si           18.85963102         31.69629454         36.53241252
C            19.73422962         25.05993076         36.50922544
Si           21.73647353         22.36287580         36.50402381
C            27.45894910         18.98099879         36.50123156
Si           30.83513133         18.81121407         36.48585275
C            37.08032235         21.11298660         36.54456250
Si           39.28450985         23.71109414         36.47373043
C            41.37725901         30.01613697         36.52724342
Si           40.73981828         33.28715671         36.50998151
C            40.25913375         34.96551102         33.58056574
Si           38.30323154         37.67098086         33.59575144
C            32.57669949         41.03853265         33.60138338
Si           29.18831738         41.14670134         33.55675719
C            22.94752352         38.80617291         33.56436695
Si           20.75502110         36.32766597         33.59197506
C            18.63528740         30.01067966         33.60479092
Si           19.22301967         26.70977434         33.60916363
C            22.89030573         21.17012591         33.60851777
Si           25.87175406         19.61843683         33.62283174
C            32.53329539         18.99172431         33.59020327
Si           35.63161017         20.29052994         33.60569281
C            40.20824827         25.09914517         33.59124810
Si           41.12445023         28.34052493         33.56500799
C            37.14783202         38.87087037         30.68423982
Si           34.16490825         40.39461001         30.67018556
C            27.50585526         41.00845315         30.68187941
Si           24.45313806         39.65031600         30.64627807
C            19.80861867         34.87771262         30.66741642
Si           18.88137963         31.65363489         30.67192321
C            19.76578735         25.05698587         30.65177202
Si           21.78525509         22.39820818         30.63413041
C            27.48284847         18.95646833         30.63934909
Si           30.81179684         18.84900588         30.67525069
C            37.06781455         21.16114002         30.65391055
Si           39.31454079         23.69392759         30.64864455
C            41.37387062         29.96459465         30.69974972
Si           40.76649163         33.33003126         30.65869577
C            40.31156055         34.90362769         27.71361813
Si           38.28040736         37.61510134         27.73802748
C            32.58436918         41.02787932         27.73667263
Si           29.22663932         41.17963203         27.76470860
C            22.97802339         38.81212895         27.72675737
Si           20.74371864         36.26386754         27.70944471
C            18.62179793         30.01850529         27.73454219
Si           19.20231177         26.65165716         27.73479963
C            22.88819498         21.11104422         27.77763731
Si           25.89377490         19.58345318         27.72641793
C            32.53058597         18.98723248         27.77696612
Si           35.64960377         20.28624592         27.73107992
C            40.23393503         25.08956119         27.78696682
Si           41.10132401         28.31773728         27.72866823
C            37.14181677         38.85255169         24.78936124
Si           34.16566326         40.43977123         24.83682750
C            27.47076379         40.99190886         24.77923302
Si           24.44181086         39.66324623         24.80476787
C            19.81241639         34.87318362         24.80740598
Si           18.91629392         31.66489036         24.79406352
C            19.71274868         25.02560999         24.82307310
Si           21.71477245         22.40537087         24.78817727
C            27.49949759         18.95177858         24.85995478
Si           30.86051081         18.87244304         24.84773015
C            37.10462076         21.11379552         24.80688266
Si           39.30136249         23.70555837         24.86247612
C            41.34275380         29.96809004         24.85374992
Si           40.74603252         33.32981323         24.81050216
C            40.27892411         34.95061304         21.88156504
Si           38.27129415         37.65079123         21.93119422
C            32.59039902         41.04354167         21.88533583
Si           29.16477728         41.15351336         21.86557673
C            22.92240669         38.82398969         21.85274799
Si           20.77333952         36.30903700         21.85478800
C            18.61870575         29.96454079         21.88900484
Si           19.21160786         26.70949201         21.92075465
C            22.93070409         21.12722626         21.88057134
Si           25.88478596         19.58683997         21.94399292
C            32.49578251         18.99126820         21.89751471
Si           35.58322523         20.30018817         21.93964749
C            40.26287093         25.05871721         21.87790880
Si           41.11828056         28.32679748         21.90862898
C            37.14497973         38.85095268         18.96854107
Si           34.13200785         40.41351128         18.94625228
C            27.48921498         41.02966712         18.95392068
Si           24.39373888         39.65900263         19.00001910
C            19.75740796         34.87233310         18.95888260
Si           18.91003782         31.64928891         18.99095939
C            19.77028872         25.03023129         19.01445728
Si           21.74817459         22.37059385         18.98424680
C            27.47815911         18.95025877         19.02448098
Si           30.81846826         18.87675270         19.01927302
C            37.06954995         21.18060557         18.96587297
Si           39.30738583         23.68578967         18.96328819
C            41.38796617         30.03460126         18.95781263
Si           40.76903720         33.32495099         18.94817578
C            40.31269909         34.95796312         16.09116278
Si           38.31725129         37.62704742         16.04870017
C            32.52592829         40.99898218         16.07994151
Si           29.23143786         41.14387712         16.05728511
C            22.97676002         38.82103925         16.01638341
Si           20.77361597         36.30076729         16.05514221
C            18.64647314         29.97687229         16.07367116
Si           19.27655589         26.68093221         16.05177725
C            22.92821827         21.16183772         16.03944672
Si           25.86453523         19.56244557         16.04906221
C            32.54040908         18.97438733         16.04605725
Si           35.63214231         20.27028493         16.09446663
C            40.24484773         25.12148787         16.05652354
Si           41.12929478         28.35616504         16.09287789
C            37.14219650         38.88276841         13.15056377
Si           34.15514773         40.44711520         13.09931068
C            27.51920572         41.01189276         13.15018188
Si           24.39609105         39.67426130         13.11577222
C            19.78853311         34.94853025         13.11281907
Si           18.88473611         31.64196752         13.13224886
C            19.71976543         25.03511090         13.14271492
Si           21.72323161         22.35207052         13.18056479
C            27.47267213         18.94242339         13.18296453
Si           30.86276910         18.88744386         13.14229014
C            37.07739173         21.17036769         13.15159857
Si           39.30933499         23.71103225         13.18689456
C            41.36984461         30.01302333         13.12655911
Si           40.76295095         33.35092738         13.11804992
C            40.29975145         34.92464941         10.23894598
Si           38.30675812         37.65432383         10.17817460
C            32.52918577         41.02842240         10.21672928
Si           29.22493659         41.16811628         10.23738516
C            22.94980547         38.82364558         10.22642919
Si           20.71051686         36.29827349         10.20356214
C            18.58945959         30.01942895         10.18617249
Si           19.23125066         26.67218243         10.20617849
C            22.91283809         21.15458157         10.23591256
Si           25.86267283         19.60378886         10.23748461
C            32.55143757         18.94150367         10.24818558
Si           35.60662783         20.27435424         10.24497359
C            40.22873683         25.07083662         10.21562927
Si           41.12683827         28.31663266         10.20986640
C            37.13221412         38.85500567          7.28598928
Si           34.12381763         40.46831404          7.25458795
C            27.50299938         40.98177743          7.27655884
Si           24.39305955         39.63556157          7.29930896
C            19.76094264         34.91560899          7.28646648
Si           18.90509382         31.63243438          7.31723074
C            19.73761932         25.06822916          7.33711404
Si           21.72575797         22.36211457          7.30931061
C            27.49942466         18.99904871          7.31577420
Si           30.81603313         18.83877461          7.32112471
C            37.06731194         21.13877620          7.27078118
Si           39.28724110         23.70983146          7.32196410
C            41.33236505         30.01050641          7.30067781
Si           40.76753592         33.33635484          7.32528805
C            40.31466959         34.92138112          4.41770698
Si           38.24072397         37.60836008          4.37845380
C            32.53929133         41.00780184          4.36129307
Si           29.19960148         41.18373314          4.33347373
C            22.93271170         38.82639400          4.34867469
Si           20.77411282         36.32983416          4.38224993
C            18.62362350         30.01046598          4.37955736
Si           19.25886042         26.68617579          4.33810657
C            22.86873485         21.17377004          4.34521375
Si           25.90962455         19.58942261          4.39341925
C            32.54747339         18.95378384          4.35227753
Si           35.60150907         20.34962537          4.34932600
C            40.24967390         25.08529795          4.40121934
Si           41.11985874         28.35166209          4.41826717
C            37.16326076         38.90354388          1.43261199
Si           34.14370617         40.42441219          1.47438790
C            27.49818424         41.00325535          1.44805190
Si           24.46138884         39.66520705          1.41669022
C            19.77475721         34.93721520          1.42695692
Si           18.91696677         31.63188026          1.42168974
C            19.70254994         25.05454115          1.43106898
Si           21.71289778         22.33412013          1.44333518
C            27.46401630         18.98418274          1.48541923
Si           30.80130305         18.82595596          1.45244570
C            37.10497789         21.13934917          1.50554725
Si           39.24864601         23.68877457          1.49280887
C            41.34724600         29.96476053          1.45574870
Si           40.76458647         33.35745355          1.49865896
