 392 atomic                                                                                                              
 periodic  60.00000000  60.00000000  81.76000000                                                                         
C            40.28649116         34.92417061         80.27810254
Si           38.27766958         37.64858122         80.30868462
C            32.54919314         41.05857252         80.30390747
Si           29.20439182         41.15351829         80.27238284
C            22.93785813         38.83871329         80.29303354
Si           20.74040741         36.31541872         80.28511676
C            18.61236560         29.99615077         80.31473313
Si           19.23995371         26.69282042         80.29705140
C            22.92465200         21.14577074         80.30732631
Si           25.87929983         19.60674754         80.31734792
C            32.51496862         18.97563617         80.32647185
Si           35.60890669         20.31990723         80.29909370
C            40.22453229         25.09016393         80.29065985
Si           41.10350879         28.31967276         80.30477111
C            37.12923194         38.88221775         77.38740598
Si           34.12050018         40.44340186         77.36593782
C            27.49780279         41.03420462         77.36964265
Si           24.40914044         39.67216307         77.36813038
C            19.79971288         34.90331506         77.37067090
Si           18.89372722         31.67877750         77.36602339
C            19.74895039         25.05240030         77.37219403
Si           21.74241095         22.35497617         77.39794545
C            27.48255990         18.99426809         77.40159843
Si           30.84976459         18.83293186         77.39997721
C            37.09936126         21.15328288         77.38464934
Si           39.27868303         23.69889352         77.41048656
C            41.37655650         29.99535938         77.37016936
Si           40.77999406         33.33113775         77.39698949
C            40.30619633         34.92007051         74.44501058
Si           38.27023248         37.64394650         74.47884099
C            32.54775514         41.05094623         74.44131325
Si           29.21308461         41.14601829         74.46406522
C            22.95676704         38.83710590         74.46426943
Si           20.76038932         36.29494765         74.45331982
C            18.64923095         29.98827444         74.47156445
Si           19.25160005         26.66754221         74.46666501
C            22.88826691         21.14314710         74.47189453
Si           25.91623761         19.58993359         74.45819258
C            32.50009563         18.95257909         74.45411843
Si           35.61268229         20.29537621         74.47664655
C            40.25520523         25.10007644         74.44517019
Si           41.11028787         28.35706792         74.44637142
C            37.14603826         38.87774681         71.55131044
Si           34.14859399         40.44468219         71.53976937
C            27.52935616         41.01661036         71.54123829
Si           24.42817185         39.69131687         71.50914452
C            19.78757602         34.92467226         71.51859235
Si           18.88813869         31.66343144         71.53072724
C            19.73168899         25.04143501         71.55839780
Si           21.75410862         22.35013357         71.52389245
C            27.49108502         18.97617671         71.55514507
Si           30.83186611         18.87196113         71.56925432
C            37.09296436         21.12152106         71.54074018
Si           39.26353745         23.68119205         71.55605214
C            41.37195693         30.02266913         71.55850807
Si           40.77177703         33.30023735         71.53746556
C            40.30376983         34.94262548         68.61962488
Si           38.25789172         37.66155623         68.61022562
C            32.57178994         41.03026492         68.61356596
Si           29.21089231         41.14085811         68.60123014
C            22.97407499         38.81965638         68.59815431
Si           20.73088936         36.30902357         68.60317693
C            18.64891727         29.97432232         68.62671102
Si           19.25446998         26.67891317         68.62073329
C            22.90326418         21.13298516         68.61299780
Si           25.88142009         19.60070548         68.60306223
C            32.51909966         18.95532408         68.62598807
Si           35.59733320         20.31063628         68.63462498
C            40.26729250         25.07985182         68.60656230
Si           41.12549846         28.34510635         68.63358453
C            37.11390623         38.86164182         65.70476777
Si           34.13462305         40.42799767         65.70322145
C            27.51519570         41.00268111         65.70772346
Si           24.42056162         39.67839834         65.68906916
C            19.79157059         34.90785016         65.69037293
Si           18.89531325         31.67971701         65.68091829
C            19.75644208         25.06391230         65.72001597
Si           21.73925030         22.37905197         65.68535790
C            27.45784255         18.96513065         65.70143609
Si           30.81711073         18.83921395         65.70986695
C            37.07829597         21.15336904         65.71895665
Si           39.28286000         23.67047707         65.69318474
C            41.37840355         30.00232001         65.71853681
Si           40.76376692         33.30522441         65.70578967
C            40.26759689         34.92456431         62.79892135
Si           38.26492498         37.64034848         62.77463039
C            32.54428947         41.04147269         62.78677581
Si           29.20531767         41.16093417         62.75591496
C            22.96154115         38.82352071         62.77428916
Si           20.74688916         36.30826381         62.76204486
C            18.63432298         29.97186523         62.77612477
Si           19.21820498         26.70237454         62.79433794
C            22.91324064         21.12476843         62.77639657
Si           25.91305473         19.60408091         62.78685736
C            32.50702025         18.96983196         62.78149884
Si           35.60555167         20.29474539         62.77834074
C            40.26174979         25.09146287         62.80911237
Si           41.13513449         28.34036783         62.79328115
C            37.13894730         38.88266353         59.84219548
Si           34.14963378         40.41682609         59.86783742
C            27.49834169         41.04215072         59.87367892
Si           24.41039767         39.65727557         59.86576940
C            19.76617842         34.93414715         59.83711728
Si           18.90009302         31.64578069         59.85922626
C            19.73721135         25.05754352         59.87641695
Si           21.75748894         22.36651842         59.85557684
C            27.46516337         18.95173319         59.86789704
Si           30.85272110         18.86811380         59.84965274
C            37.08476870         21.16330083         59.85081961
Si           39.29760466         23.68093872         59.85826226
C            41.38934018         30.00843580         59.86956211
Si           40.78240086         33.31820094         59.86953007
C            40.29384132         34.94591100         56.94492180
Si           38.27297244         37.63453299         56.94336662
C            32.57745235         41.05422680         56.91245080
Si           29.20035700         41.15572622         56.93553703
C            22.97649888         38.84676547         56.92767685
Si           20.75042757         36.30682673         56.92001418
C            18.64158418         29.97779730         56.92801917
Si           19.23331757         26.68407459         56.94934336
C            22.89607778         21.13705973         56.93761202
Si           25.89536512         19.57701553         56.92558736
C            32.53903547         18.98904697         56.94433643
Si           35.60322907         20.30369029         56.95320020
C            40.24534485         25.09053810         56.94629496
Si           41.09394556         28.33282539         56.94103020
C            37.13240935         38.89011716         54.03342164
Si           34.12255281         40.41608891         54.01497131
C            27.51537397         41.00600117         54.00517324
Si           24.42205664         39.65881950         54.00949806
C            19.78309062         34.89542316         54.02019116
Si           18.89109644         31.65035898         54.02999052
C            19.73503879         25.07232605         54.01053278
Si           21.74450501         22.35108167         54.01755708
C            27.47735624         18.98283278         54.01886168
Si           30.81485373         18.84693959         54.00538177
C            37.09324040         21.14907179         54.04302671
Si           39.27500854         23.71229126         54.03028884
C            41.34604870         29.99362793         54.01004284
Si           40.75368895         33.30415494         54.04141097
C            40.26845621         34.93254880         51.12112074
Si           38.26895610         37.66056882         51.10862294
C            32.55824742         41.02050491         51.10961770
Si           29.21153421         41.17048149         51.09815228
C            22.97813061         38.82281263         51.08265682
Si           20.76500167         36.28155128         51.10077458
C            18.63271967         29.99938501         51.10369873
Si           19.23075702         26.67489252         51.08892667
C            22.90112031         21.13992554         51.09858304
Si           25.87960818         19.57418744         51.09408916
C            32.53198915         18.98195078         51.09971213
Si           35.62661948         20.31849725         51.12943114
C            40.23293674         25.09482593         51.10237250
Si           41.11282559         28.32051471         51.08299521
C            37.10872238         38.89570084         48.18033472
Si           34.13322935         40.41056971         48.17542685
C            27.52914252         41.00224269         48.17885236
Si           24.40468322         39.67958833         48.18117580
C            19.79526166         34.91476006         48.18694678
Si           18.88291170         31.65404380         48.17756613
C            19.73204690         25.07395629         48.18998750
Si           21.76804023         22.36596714         48.19057435
C            27.45573619         18.97345633         48.19466159
Si           30.81627077         18.83802849         48.18352988
C            37.08928913         21.15387349         48.19564319
Si           39.27914967         23.67844361         48.20603148
C            41.35024004         30.02568225         48.17812153
Si           40.76195057         33.29738808         48.19961165
C            40.27102993         34.93442880         45.26658913
Si           38.25729029         37.64654796         45.27036266
C            32.55872980         41.03913690         45.25654142
Si           29.20546062         41.14180779         45.26507404
C            22.94613763         38.85599027         45.26399758
Si           20.74311541         36.28392213         45.27481569
C            18.60707516         29.98673986         45.26935707
Si           19.24831336         26.67825884         45.27471946
C            22.89763308         21.12783866         45.25138891
Si           25.88818393         19.59128493         45.24662660
C            32.51360037         18.97809159         45.28025424
Si           35.62110245         20.30492660         45.26690686
C            40.24926612         25.08857755         45.26132034
Si           41.10403646         28.32839923         45.24247868
C            37.13956859         38.86365719         42.35444719
Si           34.12596279         40.41885721         42.35297042
C            27.49014414         40.99780073         42.35126708
Si           24.42889927         39.68018784         42.30955263
C            19.79301010         34.89592483         42.35376063
Si           18.91121411         31.64941267         42.32354815
C            19.75611344         25.05310681         42.34380192
Si           21.76250612         22.37862855         42.36168304
C            27.49042896         18.99270847         42.35063119
Si           30.81597443         18.85321958         42.35681024
C            37.07343352         21.15577217         42.34506887
Si           39.26791232         23.71165676         42.35543361
C            41.35830426         30.01803874         42.34338537
Si           40.75290629         33.32631294         42.34599913
C            40.29798415         34.92766322         39.43616838
Si           38.27735388         37.63231894         39.42188096
C            32.56157192         41.05915090         39.41761183
Si           29.20824563         41.13042360         39.40663938
C            22.95276024         38.81824608         39.43236036
Si           20.73565020         36.29334970         39.42032611
C            18.61482073         29.99091015         39.43237727
Si           19.23566199         26.69799452         39.41470019
C            22.92919470         21.14430845         39.42926224
Si           25.88300829         19.58525378         39.43578463
C            32.50541527         18.95677314         39.43074680
Si           35.61387871         20.33203343         39.43719979
C            40.22692107         25.08341778         39.44674744
Si           41.12296520         28.35387006         39.41192564
C            37.11308431         38.89893962         36.48711653
Si           34.13074427         40.45375340         36.48243833
C            27.52832700         41.02773750         36.50154216
Si           24.40676481         39.65890850         36.49571004
C            19.79024386         34.92574913         36.47148587
Si           18.87490298         31.68169744         36.48907529
C            19.74471331         25.08219060         36.47759461
Si           21.77061362         22.38743486         36.51960736
C            27.47082154         18.99089326         36.51960687
Si           30.81759622         18.87318210         36.49086558
C            37.06267553         21.15965751         36.50181017
Si           39.29719456         23.67349187         36.49874652
C            41.36099890         29.98818246         36.51994278
Si           40.77283427         33.32491253         36.48146921
C            40.28004398         34.95964598         33.55926139
Si           38.29586746         37.66457176         33.57632822
C            32.57416406         41.02044302         33.55395068
Si           29.17951852         41.13766480         33.58806719
C            22.96857539         38.85514407         33.59319534
Si           20.75940328         36.28436546         33.57835223
C            18.61352234         29.98141193         33.56096308
Si           19.25650733         26.68224834         33.56114633
C            22.92039575         21.14294237         33.56577499
Si           25.88971476         19.58344168         33.57491464
C            32.53124710         18.97176654         33.58395279
Si           35.59656487         20.31074573         33.57945808
C            40.26300713         25.09375119         33.59297284
Si           41.13538553         28.31463592         33.58320231
C            37.13697602         38.88436084         30.67099326
Si           34.15382979         40.42510340         30.63208335
C            27.49820279         41.02071145         30.64588660
Si           24.40379143         39.67495466         30.67048003
C            19.79947210         34.93028363         30.64606010
Si           18.89553453         31.66767181         30.64591610
C            19.72477415         25.05971057         30.63949931
Si           21.76369617         22.35948502         30.65050032
C            27.48118468         18.97577731         30.67367208
Si           30.84944021         18.84136723         30.67161544
C            37.09045611         21.12711168         30.68020532
Si           39.28820670         23.70558775         30.65989835
C            41.38093586         30.02645373         30.68616128
Si           40.77578587         33.32051170         30.67237112
C            40.26344261         34.94460725         27.76190314
Si           38.29128661         37.65188723         27.72215865
C            32.54318721         41.03629735         27.75307812
Si           29.19821769         41.15916415         27.74385088
C            22.97445465         38.84729519         27.71393787
Si           20.74801632         36.28530113         27.73899421
C            18.63620831         29.99309642         27.73369107
Si           19.23905066         26.69041483         27.72902002
C            22.91348558         21.14466639         27.74038443
Si           25.88754022         19.58985559         27.74554947
C            32.52292215         18.95729249         27.75559827
Si           35.59964773         20.33117716         27.73696900
C            40.24997970         25.06270175         27.76268044
Si           41.10408765         28.33104326         27.76589396
C            37.11517152         38.90134221         24.83091143
Si           34.12218120         40.43936508         24.82629296
C            27.52271531         41.03087978         24.81543115
Si           24.41127564         39.68903745         24.81338098
C            19.79183186         34.90385855         24.81081855
Si           18.90899306         31.68365537         24.82233357
C            19.73232149         25.05995744         24.81111487
Si           21.75275217         22.38151827         24.81691534
C            27.46279111         18.97408237         24.81442128
Si           30.84994945         18.85832545         24.82660100
C            37.07875577         21.13493122         24.80791408
Si           39.27445954         23.69409102         24.83921971
C            41.38886518         30.01893820         24.83886436
Si           40.78481701         33.32582262         24.81283562
C            40.26897088         34.95088322         21.90640778
Si           38.28936531         37.65594597         21.87919923
C            32.58356193         41.05495268         21.89193929
Si           29.21776099         41.14081050         21.89616935
C            22.96530974         38.84197735         21.89053885
Si           20.74479191         36.31627609         21.91132003
C            18.62984126         29.98495837         21.90509533
Si           19.22939056         26.69800313         21.90656377
C            22.89185015         21.13568666         21.89425630
Si           25.90051646         19.59179298         21.89440210
C            32.49929330         18.99088668         21.89209486
Si           35.61877302         20.30928640         21.88858095
C            40.24683741         25.08728356         21.89105418
Si           41.10701136         28.31913904         21.88624034
C            37.13112720         38.89202872         18.98879760
Si           34.12637127         40.44041485         18.97891112
C            27.50076178         41.03624834         18.95929997
Si           24.41044804         39.67350569         18.95491636
C            19.76611948         34.91238287         18.98490304
Si           18.87795779         31.68117373         18.98104083
C            19.71346944         25.07305456         18.98020000
Si           21.77364866         22.38402798         18.97328239
C            27.48787005         18.98405611         18.98885077
Si           30.83541469         18.87207155         18.97324240
C            37.07077026         21.14764601         18.99383510
Si           39.28231628         23.69340345         18.97131281
C            41.36395880         29.98762232         18.96243851
Si           40.78502363         33.31398418         18.99307409
C            40.28981761         34.92529616         16.04397735
Si           38.28146721         37.63650219         16.07598128
C            32.57805792         41.01952010         16.03204838
Si           29.18674724         41.13346269         16.06745788
C            22.96915745         38.85726671         16.04597755
Si           20.73819628         36.31577525         16.07061559
C            18.62579421         29.99587875         16.05316740
Si           19.22548023         26.66995988         16.03810765
C            22.91407939         21.13811176         16.04487931
Si           25.91055725         19.57674869         16.06309979
C            32.49787383         18.97918501         16.08098857
Si           35.63273327         20.29704669         16.04621473
C            40.26010757         25.08190670         16.04832108
Si           41.10353297         28.33465022         16.08596167
C            37.12992658         38.89784986         13.14019057
Si           34.14980973         40.42315483         13.15400510
C            27.52427655         41.02278606         13.12022983
Si           24.42121958         39.66511204         13.14724933
C            19.76676524         34.90331615         13.14852136
Si           18.90089857         31.66922374         13.14821790
C            19.74155295         25.07281719         13.14920210
Si           21.76647315         22.34800187         13.15523394
C            27.47510471         18.99233232         13.14708665
Si           30.81719286         18.87187723         13.16039064
C            37.08742928         21.13199188         13.14897979
Si           39.26956893         23.69918754         13.12723602
C            41.38320239         30.00081061         13.12188245
Si           40.76085364         33.30336564         13.15830870
C            40.30306299         34.94443755         10.20773596
Si           38.26717213         37.63814983         10.23437072
C            32.54215274         41.05598230         10.23039627
Si           29.18125989         41.14522927         10.20122243
C            22.97900338         38.82147168         10.20254873
Si           20.76006790         36.29593038         10.19182963
C            18.64792920         29.99070920         10.21591220
Si           19.25131027         26.68061168         10.20791614
C            22.88924374         21.14465078         10.23313406
Si           25.87696360         19.56799394         10.23960710
C            32.51062839         18.97833853         10.24033328
Si           35.60908808         20.32367187         10.23047056
C            40.26843362         25.07975769         10.20992098
Si           41.12657676         28.35070546         10.23029926
C            37.13969503         38.85669726          7.29053277
Si           34.15085913         40.44209911          7.27182134
C            27.49795237         41.04140053          7.29196564
Si           24.40932303         39.65587582          7.30334570
C            19.80814774         34.90498840          7.30034414
Si           18.88618240         31.65380839          7.31556527
C            19.72946135         25.08783527          7.28802316
Si           21.75800560         22.34851814          7.31503782
C            27.45484919         18.96933368          7.32740571
Si           30.84239609         18.85988273          7.31642676
C            37.08264762         21.13288379          7.33058269
Si           39.29965570         23.70248866          7.30995517
C            41.38132011         30.01510345          7.28706076
Si           40.75205293         33.31453639          7.31275843
C            40.27010143         34.94352720          4.37880222
Si           38.27912907         37.65983931          4.39221779
C            32.56901016         41.03030317          4.37385914
Si           29.18376096         41.14070118          4.36564137
C            22.97136068         38.84716786          4.35443156
Si           20.74781304         36.27799772          4.37315489
C            18.61975803         29.99845941          4.38072247
Si           19.22188110         26.66256772          4.39924678
C            22.90795065         21.15256383          4.38512032
Si           25.89325165         19.57019333          4.38498152
C            32.50912206         18.96348950          4.40723790
Si           35.60561011         20.31511127          4.39096567
C            40.23681239         25.10351754          4.40242000
Si           41.13114209         28.32768317          4.38005411
C            37.14452766         38.89592931          1.46851211
Si           34.15093499         40.45107676          1.43446981
C            27.49291868         41.04387562          1.43390957
Si           24.43001002         39.66559467          1.46492842
C            19.78069471         34.91432981          1.47107978
Si           18.90647595         31.65175102          1.43675331
C            19.73971515         25.05496741          1.44349497
Si           21.75406190         22.37724519          1.46467464
C            27.48977077         18.97120584          1.45982003
Si           30.85403164         18.84846580          1.45898737
C            37.06456766         21.15363617          1.45017974
Si           39.26412142         23.71066445          1.48147053
C            41.36598881         30.01519210          1.46817019
Si           40.75090482         33.33861068          1.45546360
