#V_Sim resources file v3.0
#====================
# Set the background of the background ; four floating point values (0. <= v <= 1.)
backgroundColor_color:
    1.000 1.000 1.000 1.000
# Control if a box is drawn around the rendering area ; boolean (0 or 1)
box_is_on:
    0
# Define the color of the box ; three floating point values (0. <= v <= 1.)
box_color:
    0.000 0.000 0.000
# Define the width of the lines of the box ; one integer (1. <= v <= 10.)
box_line_width:
       2
# Control if the legend is drawn ; boolean (0 or 1)
legend_is_on:
    0
# Control if the axes are drawn ; boolean (0 or 1)
axes_are_on:
    0
# The radius of the element and its shape, a real > 0. & [Sphere Cube Elipsoid Point]
atomic_radius_shape:
   Si 0.650 Sphere
atomic_radius_shape:
    C 0.500 Sphere
# Codes the main color in RedGreenBlueAlpha formatand the light effects on material, nine floats between 0. and 1.
element_color:
   Si 0.000 0.685 0.137 1.000   0.20 0.54 0.69 0.50 0.20
element_color:
    C 0.411 0.411 0.411 1.000   0.20 0.54 0.69 0.50 0.20
# This value is the width for all pairs drawn ; 0 < integer < 10
pairWire_width:
    2
# Widths detail for each drawn link ; 0 < integer < 10
# It chooses the colors of the cylinders according differents criterion ; 0 <= integer < 2
cylinder_colorType:
    1
# This value is the default radius of the pairs drawn as cylinders ; 0 < real < 10
pairCylinder_radius:
    0.250000
# This value is the radius for specific pairs drawn as cylinders ; element1 elemen2 0 < real < 10
# Ask the opengl engine to draw pairs between elements ; boolean 0 or 1
pairs_are_on:
    1
# Favorite method used to render files ; chain ('Wire pairs', 'Cylinder pairs')
pairs_favoriteMethod:
    Cylinder pairs
# Draw a link between [ele1] [ele2] [0. <= dmin] [0. <= dmax]
#                     [0. <= RGB <= 1.]x3 [bool: drawn] [bool: printLength] [string: method]
pair_link:
    Si  C  3.100 3.600
    1.000 0.600 0.200  1  0  Cylinder pairs
# Define the colour of one surface ; 4 floats (RGBA) 5 floats (material)
# Define some surface properties ; rendered (0 or 1) sensitive to planes (0 or 1)
isosurface_color:
   id="blue" 0.000 0.094 0.725 0.769   0.20 1.00 0.50 0.50 0.00
isosurface_properties:
   id="blue" 1 1
isosurface_color:
   id="red" 0.725 0.094 0.000 0.769   0.20 1.00 0.50 0.50 0.00
isosurface_properties:
   id="red" 1 1
# Control if the fog is used ; boolean (0 or 1)
fog_is_on:
   1
# Control if the fog uses a specific color ; boolean (0 or 1)
fog_color_is_specific:
   0
# Define the color of the fog ; four floating point values (0. <= v <= 1.)
fog_specific_color:
    0.000 0.000 0.000 1.000
# Define the position of the fog ; two floating point values (0. <= v <= 1.)
fog_start_end:
    0.400 0.700
