28 atomic
# xyz dump 
C 30.70979388 25.18300298 16.47014284
Si 28.66144756 27.88158259 16.43861843
C 22.83002305 31.43201272 16.36745717
Si 19.44272969 31.506652 16.35101652
C 13.02139499 29.17437057 16.3322149
Si 10.83176051 26.58967281 16.34472351
C 8.64268254 20.12207133 16.3893402
Si 9.31341797 16.80062935 16.4353902
C 13.02722019 11.07236258 16.51660213
Si 16.04453278 9.53199859 16.55607808
C 22.84327774 8.84566207 16.59755684
Si 25.92931143 10.24682569 16.60899554
C 30.71060553 15.13063025 16.57443024
Si 31.55635032 18.4120306 16.5499098
C 27.40626361 29.0874866 13.54420044
Si 24.38928653 30.56567364 13.49678778
C 17.70229665 31.25958707 13.46850932
Si 14.6599843 29.8307064 13.44950824
C 9.91880722 25.05942488 13.47468629
Si 9.14576171 21.78758573 13.49008884
C 9.94435796 15.11071752 13.58082957
Si 12.01974208 12.46625053 13.60660466
C 17.74350571 8.93387807 13.70009138
Si 21.10377493 8.90491955 13.70015297
C 27.4324365 11.17337388 13.73225352
Si 29.5558042 13.77941422 13.69847743
C 31.74549683 20.14046995 13.65426402
Si 31.02747235 23.4235353 13.59959733
