28 atomic
# xyz dump 
C 30.51829887 25.27500212 51.45249805
Si 28.50385473 28.00072163 51.43138561
C 22.70642661 31.44025846 51.37951432
Si 19.32163552 31.59489192 51.37353076
C 13.00946986 29.24291163 51.36140501
Si 10.78258652 26.68665614 51.37766265
C 8.67798149 20.28173621 51.40556663
Si 9.2881022 16.94738301 51.43271135
C 12.99321908 11.3186593 51.47455187
Si 15.98524265 9.72728512 51.49571721
C 22.69225295 9.16023837 51.50785354
Si 25.80810988 10.49539082 51.51833332
C 30.50866584 15.32942494 51.50453895
Si 31.4111176 18.59767367 51.49748037
C 27.26837234 29.14245491 48.50561028
Si 24.28856202 30.72533547 48.48135098
C 17.64442537 31.34199662 48.45497933
Si 14.54150604 30.01423429 48.45018538
C 9.91938032 25.20320032 48.4696915
Si 9.02384978 21.94745215 48.48418652
C 9.89110473 15.33168146 48.52930743
Si 11.88303248 12.60590784 48.55084821
C 17.60999413 9.1985976 48.58273414
Si 20.9839944 9.0780019 48.59215316
C 27.22600756 11.43197277 48.60132917
Si 29.46801594 13.95490327 48.59605629
C 31.57409315 20.27633777 48.57151841
Si 30.9614207 23.59618293 48.55083271
