28 atomic
# xyz dump 
C 30.46804363 25.3279776 45.54749685
Si 28.39498756 27.97459358 45.53553677
C 22.67164158 31.50897124 45.45583675
Si 19.31059287 31.53138857 45.44960297
C 12.97396837 29.26745275 45.42514873
Si 10.85301424 26.65894251 45.45399035
C 8.66443213 20.29655425 45.4903363
Si 9.38009347 17.01260904 45.53882421
C 13.00549758 11.34713904 45.58149598
Si 16.0238376 9.86953838 45.6198229
C 22.71191986 9.17776374 45.63823251
Si 25.75587619 10.60501549 45.65915083
C 30.49602851 15.37816534 45.63441899
Si 31.26939148 18.65106996 45.62303307
C 27.38668922 29.37939397 42.63051154
Si 24.36784779 30.91970643 42.59611949
C 17.56603599 31.59444714 42.55433092
Si 14.47677498 30.20019171 42.54911736
C 9.694765 25.31340247 42.57607732
Si 8.84791154 22.03173718 42.59843495
C 9.69249557 15.25544706 42.66789567
Si 11.74110711 12.55476773 42.69140747
C 17.57878293 9.00423121 42.74509502
Si 20.96723 8.93232358 42.75759129
C 27.39475546 11.26158449 42.77527816
Si 29.58653701 13.84756362 42.76406853
C 31.76922359 20.32207016 42.72513158
Si 31.09747534 23.64420954 42.68927741
